,Status,Data załadunkuna w,Data rozładunku,Załadowca,Miejsce załadunku,Miejsce rozładunku,Odbiorca,Waga załadowana,Waga odbiorcy,Różnica,Temperatura,Typ naczepy,Numery auta,Przewoźnik,Odmiana,Towar,Płatność za transport,Fracht,Waluta,Fracht zl.,UWagi transportowe,CMR,Faktura transportowa,FV Transport zapłacona?,Faktura transp. UK,Faktura sprzedaży,Cena sprzedaży,Faktura zakupu,Cena zakupu,Data fv zakupu,Uwagi,FV Transp. zapłacona?,Termin płatnośći,,
006/23,Rozładowany,29-05-2019,01-06-2019,Newman,DD8 5PQ Kirriemuir,84-210 Choczewo,MK Agro,25000,,,Nie,Plandeka,GCH62590/GCH6S99,Janta,King Edward,Ziemniak,Gotówka,1 700€,EUR,,,NIE,01/06/2019,,5508,71/05/2019,,,,,zaplacona,,,,006/01
006/18,Rozładowany,30-05-2019,03-06-2019,Newman,DD11 4PT Arbroath,62-800 Kalisz,Jacek Kalisz,24400,25200,,Nie,Plandeka,WPZ39655/WPZ16NH,Rotrans,Cultura,Ziemniak,Gotówka,1 725€,EUR,7400 PLN,,NIE,,,,06/06/2019,,,,,,,,,006/02
006/50,Rozładowany,30-05-2019,01-06-2019,APK,YO17 8HF Butterwick,63-100 Środa Wlkp,Seapol,24480,24440,,Nie,Plandeka,PZ236NM/PZ937RG,Swift,Victory,Ziemniak,Gotówka,1 050€,EUR,4500 PLN,,NIE,,,FS 80/GS/06/2019,28/06/2019,,,,,,,,,006/03
006/19,Rozładowany,31-05-2019,04-06-2019,Newman,DD11 4PT Arbroath,62-800 Kalisz,Jacek Kalisz,,25000,,Nie,Plandeka,PZ513KR / PZ396KP,Swift,Cultura,Ziemniak,Przelew 21 dni,1 500€,EUR,,,NIE,,,FS 81/GS/06/2019,07/06/2019,,,,,,,,,006/04
006/20,Rozładowany,31-05-2019,04-06-2019,Newman,DD11 4PT Arbroath,62-800 Kalisz,Jacek Kalisz,,24850,,Nie,Plandeka,PZ317NS / PO5YH50,Swift,Cultura,Ziemniak,Przelew 21 dni,1 500€,EUR,,,NIE,,,FS 82/GS/06/2019,08/06/2019,,,,,,,,,006/05
006/26,Rozładowany,31-05-2019,03-06-2019,APK,YO25 3PT Driffield,87-702 Koneck,Rolfroz,25480,25307,,Nie,Plandeka,DW017CE/PP1710J,Solidcargo,Estima,Ziemniak,Przelew 21 dni,1 150€,EUR,,,NIE,23/06/FVS/2019/EU,,5517,09/06/2019,,,,,zaplacona,,,,006/06
006/35,Rozładowany,31-05-2019,03-06-2019,Newman,DD10 0SY Kinneff,87-702 Koneck,Rolfroz,,25005,,Nie,Plandeka,PO3EW06/PO3YC07,Lupus,Maris Peer,Ziemniak,Przelew,1 600€,EUR,Zapłacone Innovator,"Miało jechać do MK Agro, nie przyjeli, u Jacka rozładowane, Towar przeładowany na auto GKA49292 / GKA30217 do Konecka",NIE,,,,ZAMIANA Z 15/06 Z MK AGRO,,,,,,,,,006/07
006/51,Rozładowany,31-05-2019,02-06-2019,APK,YO17 8HF Butterwick,63-100 Środa Wlkp,Seapol,24280,22710,,Nie,Plandeka,WZ8377N/WZ1213R,Poltik,Victory,Ziemniak,Gotówka,1 200€,EUR,5150 PLN,nie wyjasnoiona sprawa z Roksana,NIE,01/06/2019,,5506,60/08/2019,,,,,,,,,006/08
006/36,Rozładowany,01-06-2019,04-06-2019,Newman,DD11 2PR Angus,87-702 Koneck,Rolfroz,,25010,,Nie,Plandeka,PP0073M/PNTHS92,Solidcargo,Maris Piper Brushing/Peeling,Ziemniak,Przelew 21 dni,1 670€,EUR,,,NIE,41/06/FV/2019/EU,,5516,12/06/2019,,,,,zaplacona,,,,006/09
006/04,Rozładowany,03-06-2019,03-06-2019,Marcin Pałka,32-340 Wolbrom,05-860 Płochocin,Bogdan,,,,Nie,Plandeka,WPI18703 / LU9399P,Solid Spedition,King Edward,Ziemniak,Gotówka,1050 PLN,PLN,,"Transport własny, potem pojechało do Rolfroz",NIE,,,,----------,,,,,,,,,006/10
006/30,Rozładowany,03-06-2019,03-06-2019,Jacek Gdańsk,80-736 Gdańsk,87-702 Koneck,Rolfroz,,25005,,Nie,Plandeka,GKA49292 / GKA30217 ,PK Service,Maris Peer,Ziemniak,Gotówka,900 PLN,PLN,,Transport własny,NIE,,,,13/06/2019,,,,,zaplacona,,,,006/11
006/37,Rozładowany,04-06-2019,07-06-2019,Newman,DD11 4PT Arbroath,87-702 Koneck,Rolfroz,,24272,,Nie,Plandeka, PZ181PT / PZ197HM,Swift,Cultura,Ziemniak,Przelew 21 dni,1 500€,EUR,,,NIE,,,FS 77/GS/06/2019,21/06/2019,,,,,,,,,006/12
006/41,Rozładowany,04-06-2019,04-06-2019,Silver-Trans,62-610 Sompolno,87-702 Koneck,Rolfroz,,21000,,Nie,Plandeka,PKL 08576 / PKL 21Y8,Brylant,King Edward,Ziemniak,Gotówka,1000 PLN,PLN,,Transport własny,NIE,,,,18/06/2019,,,,,,,,,006/13
006/38,Rozładowany,05-06-2019,11-06-2019,Newman,DD11 4PT Arbroath,87-702 Koneck,Rolfroz,,25070,,Nie,Plandeka,PZ844HM / PZ676GF,Swift,Cultura,Ziemniak,Przelew 21 dni,1 500€,EUR,,,NIE,,,FS 78/GS/06/2019,24/06/2019,,,,,,,,,006/14
006/13,Rozładowany,06-06-2019,08-06-2019,Marius Romania,807185 Matca,,Bonifruit,,,,Tak,Chłodnia,,Rumun,,Ogórki,Gotówka,,,,,TAK,,,,17/06/2019,,,,,zaplacone,,,Dokumenty,006/15
006/24,Rozładowany,06-06-2019,10-06-2019,Newman,DD11 4PT Arbroath,84-210 Choczewo,MK Agro,25000,,,Nie,Plandeka,WPZ39521/WPZ03KY,Rotrans,Cultura mała,Ziemniak,Przelew 21 dni,1 650€,EUR,,,NIE,1133/2019,zaplacone 12.07,5520,14/06/2019,,,,,,,,,006/16
006/31,Rozładowany,06-06-2019,06-06-2019,Jacek Gdańsk,80-736 Gdańsk,87-702 Koneck,Rolfroz,,13672,,Nie,Plandeka,GKA49292 / GKA30217 ,PK Service,Harmony,Ziemniak,Gotówka,800 PLN,PLN,,"Transport własny, towar z ZK1624C/PO4Y640",NIE,,,,20/06/2019,,,,,,,,,006/17
006/33,Rozładowany,06-06-2019,06-06-2019,Marcin Pałka,32-340 Wolbrom,87-702 Koneck,Rolfroz,,21400,,Nie,Plandeka,PO3U374/BI0726M,Transport Pałki,King Edward,Ziemniak,Gotówka płatne przez Pałkę,1600 PLN,PLN,,Transport własny,NIE,,,,19/06/2019,,,,,,,,,006/18
006/39,Rozładowany,06-06-2019,10-06-2019,Newman,DD11 4PT Arbroath,87-702 Koneck,Rolfroz,,24612,,Nie,Plandeka,PO 6CH42 / PO7Y417,Duda Logistics,Cultura,Ziemniak,Przelew 21 dni,1 700€,EUR,,,NIE,1241/FV/06/2019,,,22/06/2019,,,,,,Niezaplacona//mają dosłać oryginalne dokumenty,01.10.2019,,006/19
006/27,Rozładowany,07-06-2019,11-06-2019,APK,DN20 0SQ Brigg,87-702 Koneck,Rolfroz,,24150,,Nie,Plandeka, PZ236NM / PZ937RG,Swift,Maris Piper washing,Ziemniak,Przelew 21 dni,1 000€,EUR,,,NIE,,,FS 79/GS/06/2019,25/05/2019,,,,,,,,,006/20
006/40,Rozładowany,07-06-2019,12-06-2019,Newman,DD11 4PT Arbroath,80-736 Gdańsk,Rolfroz,25000,6428,,Nie,Plandeka,GKA48610 / GKA15171,Kastel,Cultura mix,Ziemniak,Przelew 21 dni,1 620€,EUR,,"Część towaru dostarczone do Rolfroz Koneck, reszta rozładowana w Gdańsku i przekierowana do Konecka również",NIE,0572/2019,,5460,26/06/2019,zamienic z mk agro fv,SI27259,-*+,,26/05/2019,Zapłacone 16.09.2019,,,006/21
006/25,Rozładowany,10-06-2019,11-06-2019,Marcin Pałka,32-340 Wolbrom,05-300 Brzóze,Peeling,24.660,23.000,,Nie,Plandeka,PO3U374/BI0726M,Transport Pałki,Nectar nowy,Ziemniak,Gotówka płatne przez Pałkę,2800 PLN,PLN,1600 Pałka 1200 Peeling,"Transport własny, towar z ETMCH37/ETMCN37",NIE,,,,38/06/2019,,,,,,,,,006/22
006/28,Rozładowany,10-06-2019,10-06-2019,Bogdan,05-860 Płochocin,87-702 Koneck,Rolfroz,,20920,,Nie,Plandeka,WGS 89J4 / WGS 26 UY,Sann-Pol,King Edward,Ziemniak,Gotówka,850 PLN,PLN,,Transport własny King Edward,NIE,,,,23/06/2019,,,,,,,,,006/23
006/21,Rozładowany,11-06-2019,13-06-2019,,807185 Matca,62-800 Kalisz,Jacek Kalisz,,21500,,Tak,Chłodnia,,Rumun,,Ogórki,Gotówka,1 200€,EUR,,,NIE,286,,,27/06/2019,,,,,,,,,006/24
006/29,Rozładowany,12-06-2019,14-06-2019,Greenvale,TD11 3PZ Duns,87-702 Koneck,Rolfroz,24120,20583,,Nie,Plandeka,WO61220/WPZ92NH,Rotrans,King Edward,Ziemniak,Przelew 21 dni,1 700€,EUR,,,NIE,1159/2019,zaplacone 12.07,5519,34/06/2019,,,,,zaplacona,,,,006/25
006/32,Rozładowany,13-06-2019,14-06-2019,Jacek Gdańsk,80-736 Gdańsk,87-702 Koneck,Rolfroz,,16790,,Nie,Plandeka,WS 2109C / WS 98333,Wyczółkowscy,Cultura,Ziemniak,Gotówka,600 PLN,PLN,Jacek Gdańsk płaci,"Transport własny 14 big bagów co miały iść do MK Agro pierwotnie autem GKA48610 / GKA15171, wcześniej 5 palet rozładowało to auto w Konecku",NIE,,,,29/06/2019,,,,,zaplacone,,,,006/26
006/34,Rozładowany,13-06-2019,14-06-2019,Marcin Pałka,32-340 Wolbrom,87-702 Koneck,Rolfroz,,23170,,Nie,Chłodnia,,Transport Pałki,Vales,Ziemniak,Gotówka płatne przez Pałkę,1600 PLN,PLN,Pałka płaci,Transport własny Vales z auta WR160AL/WR5041P,NIE,,,,30/06/2019,,PO34374/BIO7264,,,zaplacone,,,,006/27
006/62,Rozładowany,13-06-2019,13-06-2019,Seapol,63-100 Środa Wlkp,Błonie,,,,,Nie,Plandeka,,,,,,600 PLN,PLN,,Przeładowane na auto Pałki i pojechało do Płochocina chyba do Bogdana,NIE,,,,,,,,,,,,,006/28
006/05,Rozładowany,14-06-2019,14-06-2019,Rolfroz,87-702 Koneck,05-860 Płochocin,Bogdan,,,,Nie,Plandeka,,Transport Pałki,Challenger,Ziemniak,Gotówka,1000 PLN,PLN,,"Towar Challenger ze Środy, nie przyjęte w Konecku, pojechało dalej do Płochocina",NIE,,,,,,,,,,,,,006/29
006/07,Rozładowany,14-06-2019,17-06-2019,Greenvale,PO3 5JT Portsmouth ,Błonie,Bonifruit,,23000,,8-10,Chłodnia,WL8075M/HHOM820,Marpol/Matex,Jersey,Ziemniak,Gotówka,1200€ Śr/1300€ Pło,,,zaplacone gotowka przez Bonifruit,NIE, 36/06/2019,,5521,44/06/2019,,,,,,,,,006/30
006/15,Rozładowany,14-06-2019,16-06-2019,APK,YO17 8HF Butterwick,97-512 Antopol,Bugaj,24300,0,,Nie,Plandeka,WZ8377N/WZ1213R,Poltik/Globtor,Washing Sifra,Ziemniak,Przelew 21 dni,1 250€,EUR,,,NIE,22/06/2019,zaplacone 12.07,5518,33/06/2019,,,,,zaplacone,,,,006/31
006/22,Rozładowany,14-06-2019,16-06-2019,,807185 Matca,62-800 Kalisz,Jacek Kalisz,,21500,,,Chłodnia,,Rumun,,Ogórki,Gotówka,1 200€,EUR,,,NIE,,,,32/06/2019,,,,,,,,,006/32
006/42,Rozładowany,14-06-2019,17-06-2019,Greenvale,PO3 5JT Portsmouth ,05-860 Płochocin,Roman Sobczak,22000,22000,,8-10,Chłodnia,WSCUG90 / WSCVU90,Janmar,Jersey,Ziemniak,Gotówka,1 200€,EUR,5100,,TAK,1538/2019,,,52/06/2019,,,,,,,,,006/33
006/01,Rozładowany,15-06-2019,17-06-2019,Greenvale,PO3 5JT Portsmouth ,63-460 Nowe Skalmierzyce,Awex,22000,22850,,8-10,Chłodnia,WOT24560 / WSCVU30,Janmar,Jersey,Ziemniak,Gotówka od Jacka Kalisz,1 200€,EUR,10230 PLN zapłacone przez Jacka z Kalisza przed rozładunkiem w Awex,,NIE,1539/2019,,5522,35/06/2019,,,,,,,,,006/34
006/43,Rozładowany,15-06-2019,17-06-2019,Greenvale,PO3 5JT Portsmouth ,05-860 Płochocin,Roman Sobczak,22000,23000,,8-10,Chłodnia,WOT24561 / WSCPW10 ,Janmar,Jersey,Ziemniak,Gotówka od Jacka Kalisz,1 200€,EUR,5100,"Rozładowany w Frutim w Błoniu, szukamy zbytu na niego",NIE,1540/2019,,,53/06/2019,,,,,,,,,006/35
006/60,Rozładowany,17-06-2019,19-06-2019,,88-153 Kruszwica,TR27 5JQ Hayle,Trevaskis Farm,,23648,,4 ciągły,Chłodnia,KR6H241/KR2P496,Mistral,,Brokuł,Gotówka po kólku,4 000€,EUR,,Auto załadowało w Zamościu i doładowało w Kruszwicy,NIE,,,,42/06/2019,,,,,,,,,006/36
006/61,Rozładowany,17-06-2019,19-06-2019,Krzysztof Benadt,99-120 Piątek,PE22 9AA Wrangle,Wrangle Growers,21689@ z CMR,,,4 ciągły,Chłodnia,EWIKV43/KR7P992,MTS Logistic,,Kapusta,Przelew 21 dni,2 400€,EUR,,,NIE,FV00071/06/19,,,66/06/2019,,,,,,Zapłacone 16.08.2019,,,006/37
006/02,Rozładowany,18-06-2019,19-06-2019,Greenvale,PO3 5JT Portsmouth ,63-460 Nowe Skalmierzyce,Awex,22500,22121,,8-10,Chłodnia,WMA20185/WMA71EF,Kozłowska,Jersey,Ziemniak,Przelew 21 dni,1 200€,EUR,,,NIE,219/06/2019,,5483,37/06/2019,,,,,,,,,006/38
006/03,Rozładowany,18-06-2019,19-06-2019,Greenvale,PO3 5JT Portsmouth ,63-460 Nowe Skalmierzyce,Awex,22500,22001,,8-10,Chłodnia,WMA26230/WMA05EF,Kozłowska,Jersey,Ziemniak,Gotówka,1 200€,EUR,,Zapłacone u Romana,NIE,218/06/2019,,5484,36/06/2019,,,,,,Zapłacone,,,006/39
006/53,Rozładowany,18-06-2019,20-06-2019,Farmers,32-125 Rudne Górne,PE22 0EJ Boston,TH Clements & Son Ltd,11200@,,,4 ciągły,Chłodnia,WGM51800/WGM60600,DMP Frigo Trans,,Kalafior,Przelew 21 dni,2 500€,EUR,,,NIE,00111/2019,,5525,61/06/2019,,,,,,Zapłacone,,,006/40
006/56,Rozładowany,18-06-2019,20-06-2019,Stanek,88-121 Chełmiczki,TR27 5JQ Hayle,Trevaskis Farm,12294kg 24000 szt sztuk@,24435,,4 ciągły,Chłodnia,CNA04712/CB97677,Agmar/ Sawdel,,Brokuł,Przelew 7 dni,3 900€,EUR,,,NIE,422/2019,,5481,43/06/2019,RR9601,,,,,,,,006/41
006/52,Rozładowany,19-06-2019,25-06-2019,Greenvale,PO3 5JT Portsmouth ,88-121 Chełmiczki,Stanek,,22000,,8-10,Chłodnia,WWY46440/WWY3077P,Marpol,Jersey,Ziemniak,Przelew 21 dni,1 200€,EUR,-----,"Auto rozładowane u Stanka w Chełmiczki, pojechało do Romana autem WB0690M/WB195AK",NIE,002670/MARPOL/2019,,,"nie przyjeli, wystawiona na Romana",,,,,,,,,006/42
006/16,Rozładowany,20-06-2019,22-06-2019,Greenvale,PO3 5JT Portsmouth ,62-610 Sompolno,Damian Bagr,22500,,,8-10,Chłodnia,WGR16059/WGR8NL9,Agropol,Jersey,Ziemniak,Gotówka,900€,EUR,,"Auto rozładowane w Sompolno, pojechało do Bonifruit do Bronisz autem PKL32917/PKN537XC",NIE,001/T/06/2019,zaplacona 12.07,5526,"nie przyjeli, fv wystawiona na Bonifruit",,,,,,,,,006/43
006/44,Rozładowany,20-06-2019,24-06-2019,Greenvale,PO3 5JT Portsmouth ,05-860 Płochocin,Roman Sobczak,22500@ z CMR,21600,,8-10,Chłodnia,PO5CF41/PO1YA62 ,Prime Champ,Jersey,Ziemniak,Gotówka,1 200€,EUR,5115,,NIE,,,,54/06/2019,,,,,,,,,006/44
006/55,Rozładowany,20-06-2019,22-06-2019,Stanek,88-121 Chełmiczki,PE22 0EJ Boston,TH Clements & Son Ltd,13137,13494,,4 ciągły,Chłodnia,PO 6JG45/PO 1YF97,Stanek Transport,,Brokuł,,,PLN,,,NIE,,,,40/06/2019,RR9606,,,,,,,,006/45
006/54,Rozładowany,22-06-2019,24-06-2019,Kopytowski Mateusz + sąsiad,88-170 Rycerzewo,PE22 0EJ Boston,TH Clements & Son Ltd,15200,12134,,4 ciągły,Chłodnia,CNA 5E77/PO 2Y471,Agmar,,Brokuł,Przelew 7 dni,2 550€,EUR,,Załadnek u Mateusz Kopytowski oraz u sąsiada,NIE,525/06/2019,,5494,41/06/2019,,FV/31/2019,,,niezaplacona,Zapłacone,,,006/46
006/57,Rozładowany,22-06-2019,25-06-2019,Stanek,88-121 Chełmiczki,TR27 5JQ Hayle,Trevaskis Farm,20280 szt/ 11554 kg,,,4 ciągły,Chłodnia,CNA04712/CB97677,Agmar/ Sawdel,,Brokuł,Przelew 7 dni,3 900€,EUR,,Sytuacja ze Stankiem i przewoźkiem rozwiązana,NIE,525/06/2019  ?  421/2019,,5480,nie dojechalo,RR9604,,,,,,,,006/47
006/45,Rozładowany,23-06-2019,26-06-2019,Greenvale,PO3 5JT Portsmouth ,05-860 Płochocin,Roman Sobczak,,22500,,8-10,Chłodnia,LLU56761/LU677PA,MBC Trans,Jersey,Ziemniak,Gotówka,1 300€,EUR,5530 PLN,,NIE,,,,55/06/2019,,SI073246,,,,,,,006/48
006/58,Rozładowany,23-06-2019,25-06-2019,Stanek,88-121 Chełmiczki,TR27 5JQ Hayle,Trevaskis Farm,/2028012194,,,4 ciągły,Chłodnia,CB850JX/CB97773,Agmar,,Brokuł,Przelew 7 dni,3 400€,EUR,,Sytuacja ze Stankiem i przewoźkiem rozwiązana,NIE,526/06/2019,,,nie dojechalo,RR9605,,,,,Zapłacone,,,006/49
006/59,Rozładowany,23-06-2019,25-06-2019,Stanek,88-121 Chełmiczki,TR27 5JQ Hayle,Trevaskis Farm,,,,4 ciągły,Chłodnia,WGM 58654/ WMA 70PY,Stanek Transport,,Brokuł,,,,,Sytuacja ze Stankiem i przewoźkiem rozwiązana,NIE,,,,nie dojechalo,,,,,,,,,006/50
006/08,Rozładowany,24-06-2019,26-06-2019,Greenvale,PO3 5JT Portsmouth ,Bronisze,Bonifruit,22500,23240@,,8-10,Chłodnia,WSC72U3/WSC76W4,Kordalewski,Jersey,Ziemniak,Przelew 21 dni,1 115€,,,,NIE,176/2019,,,45/06/2019,,,,,,,,,006/51
006/06,Rozładowany,25-06-2019,25-06-2019,Damian Bagr,62-610 Sompolno,05-850 Bronisze,Bonifruit,,,,8-10,Chłodnia, PKL32917/PKN537XC,Damian Bagr,Jersey,Ziemniak,Gotówka,800,PLN,,"Transport własny z Sompolno, auto z UK: WGR16059/WGR8NL9",NIE,,,,47/06/2019,,,,,,,,,006/52
006/09,Rozładowany,25-06-2019,28-06-2019,Greenvale,PO3 5JT Portsmouth ,05-850 Bronisze,Bonifruit,,,,8-10,Chłodnia,L0MBC9/LLU50614,MBC Trans,Jersey,Ziemniak,Przelew 21 dni,1 300€,EUR,,,NIE,,,,46/06/2019,,SI073113,,,,,,,006/53
006/49,Rozładowany,25-06-2019,25-06-2019,Stanek,88-121 Chełmiczki,05-860 Płochocin,Roman Sobczak,,22000,,8-10,Chłodnia,WB0690M/WB195AK,Osa Trans,Jersey,Ziemniak,Gotówka,800 PLN,PLN,800,Transport własny z Chełmiczki do Romana w Płochocinie,NIE,002670/MARPOL/2019,,,56/06/2019,RR9603,,,,,,,,006/54
006/63,Rozładowany,25-06-2019,27-06-2019,Stanek,88-121 Chełmiczki,,,,,,4 ciągły,Chłodnia,,Stanek Transport,,Brokuł,,,,,Sytuacja ze Stankiem i przewoźkiem rozwiązana,NIE,,,,,,,,,,,,,006/55
006/10,Rozładowany,26-06-2019,28-06-2019,Greenvale,PO3 5JT Portsmouth ,05-870 Błonie,Bonifruit,22500,,,8-10,Chłodnia,WSC7S01/WSC40W4,AP Trans,Jersey,Ziemniak,Przelew 21 dni,1 200€,EUR,,,NIE,2019/06/EU/498,zaplacone 12.07,5523,48/06/2019,,SI073101,,,,,,,006/56
006/11,Rozładowany,26-06-2019,28-06-2019,Greenvale,PO3 5JT Portsmouth ,05-870 Błonie,Bonifruit,,,,8-10,Chłodnia,WSCYL40 / WSCYU40,Janmar,Jersey,Ziemniak,Gotówka,1 200€,EUR,5100 PLN,Zapłacone gotówka przez Romana Sobczaka,NIE,1627/2019,,,49/06/2019,,SI073100,,,,,,,006/57
006/17,Rozładowany,27-06-2019,29-06-2019,Greenvale,PO3 5JT Portsmouth ,62-800 Kalisz,Jacek Kalisz,,,,8-10,Chłodnia,WSCAR60/WSC1W20,AP Trans,Jersey,Ziemniak,Gotówka,1 200€,EUR,4900 PLN,,NIE,2019/06/EU/508,,,bez fv. ,,SI073106,,,,,,,006/58
006/47,Rozładowany,27-06-2019,30-06-2019,Greenvale,PO3 5JT Portsmouth ,05-860 Płochocin,Roman Sobczak,,23000,,8-10,Chłodnia,LLU51752/LLU60739,MBC Trans,Jersey,Ziemniak,Gotówka,1 300€,EUR,5530 PLN,,NIE,,,,"58/06/2019, 63/06/2019",,SI073108,,,,,,,006/59
006/12,Rozładowany,28-06-2019,29-06-2019,Greenvale,PO3 5JT Portsmouth ,05-870 Błonie,Bonifruit,,,,8-10,Chłodnia,WGM61195/WF916AJ,Rofood,Jersey,Ziemniak,Przelew 21 dni,1 200€,EUR,,,NIE,F/4556/WDT/07/2019,,5493,50/06/2019,,SI073112,,,,Zapłacone,,,006/60
006/48,Rozładowany,28-06-2019,30-06-2019,Greenvale,PO3 5JT Portsmouth ,05-860 Płochocin,Roman Sobczak,22500,23000,,8-10,Chłodnia,BI304AU/BI6891M,Rockpol,Jersey,Ziemniak,Gotówka,1 300€,EUR,5525,,NIE,2019/06/149,,5487,"60/06/2019,65/06/2019",,SI073114,,,,Zapłacone,,,006/61
006/46,Rozładowany,29-06-2019,27-06-2019,Greenvale,PO3 5JT Portsmouth ,05-860 Płochocin,Roman Sobczak,22500,23000,,8-10,Chłodnia,WGM40836/WPR4500A,MK Cargo,Jersey,Ziemniak,Gotówka,1 350€,EUR,5760 PLN,,NIE,033/19,,5488,"57/06/2019, 62/06/2019",,SI073119,,,,,,,006/62
006/14,Rozładowany,,11-06-2019,,,,Bonifruit,,22110,,,,,,,,,,,5530 PLN,,NIE,,,,51/06/2019,,,,,"pomniejszyc o transport 5,530",,,,006/63
,,,,,,,,,,,,,,,,,,,,,,NIE,,,,,,,,,,,,,
,,,,,,,,,,,,,,,,,,,,,,NIE,,,,,,,,,,,,,
,,,,,,,,,,,,,,,,,,,,,,NIE,,,,,,,,,,,,,
,,,,,,,,,,,,,,,,,,,,,,NIE,,,,,,,,,,,,,
,,,,,,,,,,,,,,,,,,,,,,NIE,,,,,,,,,,,,,
,,,,,,,,,,,,,,,,,,,,,,NIE,,,,,,,,,,,,,
,,,,,,,,,,,,,,,,,,,,,,NIE,,,,,,,,,,,,,
,,,,,,,,,,,,,,,,,,,,,,NIE,,,,,,,,,,,,,
,,,,,,,,,,,,,,,,,,,,,,NIE,,,,,,,,,,,,,
,,,,,,,,,,,,,,,,,,,,,,NIE,,,,,,,,,,,,,
,,,,,,,,,,,,,,,,,,,,,,NIE,,,,,,,,,,,,,
,,,,,,,,,,,,,,,,,,,,,,NIE,,,,,,,,,,,,,
,,,,,,,,,,,,,,,,,,,,,,NIE,,,,,,,,,,,,,
,,,,,,,,,,,,,,,,,,,,,,NIE,,,,,,,,,,,,,
,,,,,,,,,,,,,,,,,,,,,,NIE,,,,,,,,,,,,,
,,,,,,,,,,,,,,,,,,,,,,NIE,,,,,,,,,,,,,
,,,,,,,,,,,,,,,,,,,,,,NIE,,,,,,,,,,,,,
,,,,,,,,,,,,,,,,,,,,,,NIE,,,,,,,,,,,,,
,,,,,,,,,,,,,,,,,,,,,,NIE,,,,,,,,,,,,,
,,,,,,,,,,,,,,,,,,,,,,NIE,,,,,,,,,,,,,
,,,,,,,,,,,,,,,,,,,,,,NIE,,,,,,,,,,,,,
,,,,,,,,,,,,,,,,,,,,,,NIE,,,,,,,,,,,,,
,,,,,,,,,,,,,,,,,,,,,,NIE,,,,,,,,,,,,,
,,,,,,,,,,,,,,,,,,,,,,NIE,,,,,,,,,,,,,
,,,,,,,,,,,,,,,,,,,,,,NIE,,,,,,,,,,,,,
,,,,,,,,,,,,,,,,,,,,,,NIE,,,,,,,,,,,,,
,,,,,,,,,,,,,,,,,,,,,,NIE,,,,,,,,,,,,,
,,,,,,,,,,,,,,,,,,,,,,NIE,,,,,,,,,,,,,
,,,,,,,,,,,,,,,,,,,,,,NIE,,,,,,,,,,,,,
,,,,,,,,,,,,,,,,,,,,,,NIE,,,,,,,,,,,,,
,,,,,,,,,,,,,,,,,,,,,,NIE,,,,,,,,,,,,,
,,,,,,,,,,,,,,,,,,,,,,NIE,,,,,,,,,,,,,
,,,,,,,,,,,,,,,,,,,,,,NIE,,,,,,,,,,,,,
,,,,,,,,,,,,,,,,,,,,,,NIE,,,,,,,,,,,,,
,,,,,,,,,,,,,,,,,,,,,,NIE,,,,,,,,,,,,,
,,,,,,,,,,,,,,,,,,,,,,NIE,,,,,,,,,,,,,
,,,,,,,,,,,,,,,,,,,,,,NIE,,,,,,,,,,,,,
,,,,,,,,,,,,,,,,,,,,,,NIE,,,,,,,,,,,,,
,,,,,,,,,,,,,,,,,,,,,,NIE,,,,,,,,,,,,,
,,,,,,,,,,,,,,,,,,,,,,NIE,,,,,,,,,,,,,
,,,,,,,,,,,,,,,,,,,,,,NIE,,,,,,,,,,,,,
,,,,,,,,,,,,,,,,,,,,,,NIE,,,,,,,,,,,,,
,,,,,,,,,,,,,,,,,,,,,,NIE,,,,,,,,,,,,,
,,,,,,,,,,,,,,,,,,,,,,NIE,,,,,,,,,,,,,
,,,,,,,,,,,,,,,,,,,,,,NIE,,,,,,,,,,,,,
,,,,,,,,,,,,,,,,,,,,,,NIE,,,,,,,,,,,,,
,,,,,,,,,,,,,,,,,,,,,,NIE,,,,,,,,,,,,,
,,,,,,,,,,,,,,,,,,,,,,NIE,,,,,,,,,,,,,
,,,,,,,,,,,,,,,,,,,,,,NIE,,,,,,,,,,,,,
,,,,,,,,,,,,,,,,,,,,,,NIE,,,,,,,,,,,,,
,,,,,,,,,,,,,,,,,,,,,,NIE,,,,,,,,,,,,,
,,,,,,,,,,,,,,,,,,,,,,NIE,,,,,,,,,,,,,
,,,,,,,,,,,,,,,,,,,,,,NIE,,,,,,,,,,,,,
,,,,,,,,,,,,,,,,,,,,,,NIE,,,,,,,,,,,,,
,,,,,,,,,,,,,,,,,,,,,,NIE,,,,,,,,,,,,,
,,,,,,,,,,,,,,,,,,,,,,NIE,,,,,,,,,,,,,
,,,,,,,,,,,,,,,,,,,,,,NIE,,,,,,,,,,,,,
,,,,,,,,,,,,,,,,,,,,,,NIE,,,,,,,,,,,,,
,,,,,,,,,,,,,,,,,,,,,,NIE,,,,,,,,,,,,,
,,,,,,,,,,,,,,,,,,,,,,NIE,,,,,,,,,,,,,
,,,,,,,,,,,,,,,,,,,,,,NIE,,,,,,,,,,,,,
,,,,,,,,,,,,,,,,,,,,,,NIE,,,,,,,,,,,,,
,,,,,,,,,,,,,,,,,,,,,,NIE,,,,,,,,,,,,,
,,,,,,,,,,,,,,,,,,,,,,NIE,,,,,,,,,,,,,
,,,,,,,,,,,,,,,,,,,,,,NIE,,,,,,,,,,,,,
,,,,,,,,,,,,,,,,,,,,,,NIE,,,,,,,,,,,,,
,,,,,,,,,,,,,,,,,,,,,,NIE,,,,,,,,,,,,,
,,,,,,,,,,,,,,,,,,,,,,NIE,,,,,,,,,,,,,
,,,,,,,,,,,,,,,,,,,,,,NIE,,,,,,,,,,,,,
,,,,,,,,,,,,,,,,,,,,,,NIE,,,,,,,,,,,,,
,,,,,,,,,,,,,,,,,,,,,,NIE,,,,,,,,,,,,,
,,,,,,,,,,,,,,,,,,,,,,NIE,,,,,,,,,,,,,
,,,,,,,,,,,,,,,,,,,,,,NIE,,,,,,,,,,,,,
,,,,,,,,,,,,,,,,,,,,,,NIE,,,,,,,,,,,,,
,,,,,,,,,,,,,,,,,,,,,,NIE,,,,,,,,,,,,,
,,,,,,,,,,,,,,,,,,,,,,NIE,,,,,,,,,,,,,
,,,,,,,,,,,,,,,,,,,,,,NIE,,,,,,,,,,,,,
,,,,,,,,,,,,,,,,,,,,,,NIE,,,,,,,,,,,,,
,,,,,,,,,,,,,,,,,,,,,,NIE,,,,,,,,,,,,,
,,,,,,,,,,,,,,,,,,,,,,NIE,,,,,,,,,,,,,
,,,,,,,,,,,,,,,,,,,,,,NIE,,,,,,,,,,,,,
,,,,,,,,,,,,,,,,,,,,,,NIE,,,,,,,,,,,,,
,,,,,,,,,,,,,,,,,,,,,,NIE,,,,,,,,,,,,,
,,,,,,,,,,,,,,,,,,,,,,NIE,,,,,,,,,,,,,
,,,,,,,,,,,,,,,,,,,,,,NIE,,,,,,,,,,,,,
,,,,,,,,,,,,,,,,,,,,,,NIE,,,,,,,,,,,,,
,,,,,,,,,,,,,,,,,,,,,,NIE,,,,,,,,,,,,,
,,,,,,,,,,,,,,,,,,,,,,NIE,,,,,,,,,,,,,
,,,,,,,,,,,,,,,,,,,,,,NIE,,,,,,,,,,,,,
,,,,,,,,,,,,,,,,,,,,,,NIE,,,,,,,,,,,,,
,,,,,,,,,,,,,,,,,,,,,,NIE,,,,,,,,,,,,,
,,,,,,,,,,,,,,,,,,,,,,NIE,,,,,,,,,,,,,
,,,,,,,,,,,,,,,,,,,,,,NIE,,,,,,,,,,,,,
,,,,,,,,,,,,,,,,,,,,,,NIE,,,,,,,,,,,,,
,,,,,,,,,,,,,,,,,,,,,,NIE,,,,,,,,,,,,,
,,,,,,,,,,,,,,,,,,,,,,NIE,,,,,,,,,,,,,
,,,,,,,,,,,,,,,,,,,,,,NIE,,,,,,,,,,,,,
,,,,,,,,,,,,,,,,,,,,,,NIE,,,,,,,,,,,,,
,,,,,,,,,,,,,,,,,,,,,,NIE,,,,,,,,,,,,,
,,,,,,,,,,,,,,,,,,,,,,NIE,,,,,,,,,,,,,
,,,,,,,,,,,,,,,,,,,,,,NIE,,,,,,,,,,,,,
,,,,,,,,,,,,,,,,,,,,,,NIE,,,,,,,,,,,,,
,,,,,,,,,,,,,,,,,,,,,,NIE,,,,,,,,,,,,,
,,,,,,,,,,,,,,,,,,,,,,NIE,,,,,,,,,,,,,
,,,,,,,,,,,,,,,,,,,,,,NIE,,,,,,,,,,,,,
,,,,,,,,,,,,,,,,,,,,,,NIE,,,,,,,,,,,,,
,,,,,,,,,,,,,,,,,,,,,,NIE,,,,,,,,,,,,,
,,,,,,,,,,,,,,,,,,,,,,NIE,,,,,,,,,,,,,
,,,,,,,,,,,,,,,,,,,,,,NIE,,,,,,,,,,,,,
,,,,,,,,,,,,,,,,,,,,,,NIE,,,,,,,,,,,,,
,,,,,,,,,,,,,,,,,,,,,,NIE,,,,,,,,,,,,,
,,,,,,,,,,,,,,,,,,,,,,NIE,,,,,,,,,,,,,
,,,,,,,,,,,,,,,,,,,,,,NIE,,,,,,,,,,,,,
,,,,,,,,,,,,,,,,,,,,,,NIE,,,,,,,,,,,,,
,,,,,,,,,,,,,,,,,,,,,,NIE,,,,,,,,,,,,,
,,,,,,,,,,,,,,,,,,,,,,NIE,,,,,,,,,,,,,
,,,,,,,,,,,,,,,,,,,,,,NIE,,,,,,,,,,,,,
,,,,,,,,,,,,,,,,,,,,,,NIE,,,,,,,,,,,,,
,,,,,,,,,,,,,,,,,,,,,,NIE,,,,,,,,,,,,,
,,,,,,,,,,,,,,,,,,,,,,NIE,,,,,,,,,,,,,
,,,,,,,,,,,,,,,,,,,,,,NIE,,,,,,,,,,,,,
,,,,,,,,,,,,,,,,,,,,,,NIE,,,,,,,,,,,,,
,,,,,,,,,,,,,,,,,,,,,,NIE,,,,,,,,,,,,,
,,,,,,,,,,,,,,,,,,,,,,NIE,,,,,,,,,,,,,
,,,,,,,,,,,,,,,,,,,,,,NIE,,,,,,,,,,,,,
,,,,,,,,,,,,,,,,,,,,,,NIE,,,,,,,,,,,,,
,,,,,,,,,,,,,,,,,,,,,,NIE,,,,,,,,,,,,,
,,,,,,,,,,,,,,,,,,,,,,NIE,,,,,,,,,,,,,
,,,,,,,,,,,,,,,,,,,,,,NIE,,,,,,,,,,,,,
,,,,,,,,,,,,,,,,,,,,,,NIE,,,,,,,,,,,,,
,,,,,,,,,,,,,,,,,,,,,,NIE,,,,,,,,,,,,,
,,,,,,,,,,,,,,,,,,,,,,NIE,,,,,,,,,,,,,
,,,,,,,,,,,,,,,,,,,,,,NIE,,,,,,,,,,,,,
,,,,,,,,,,,,,,,,,,,,,,NIE,,,,,,,,,,,,,
,,,,,,,,,,,,,,,,,,,,,,NIE,,,,,,,,,,,,,
,,,,,,,,,,,,,,,,,,,,,,NIE,,,,,,,,,,,,,
,,,,,,,,,,,,,,,,,,,,,,NIE,,,,,,,,,,,,,
,,,,,,,,,,,,,,,,,,,,,,NIE,,,,,,,,,,,,,
,,,,,,,,,,,,,,,,,,,,,,NIE,,,,,,,,,,,,,
,,,,,,,,,,,,,,,,,,,,,,NIE,,,,,,,,,,,,,
,,,,,,,,,,,,,,,,,,,,,,NIE,,,,,,,,,,,,,
,,,,,,,,,,,,,,,,,,,,,,NIE,,,,,,,,,,,,,
,,,,,,,,,,,,,,,,,,,,,,NIE,,,,,,,,,,,,,
,,,,,,,,,,,,,,,,,,,,,,NIE,,,,,,,,,,,,,
,,,,,,,,,,,,,,,,,,,,,,NIE,,,,,,,,,,,,,
,,,,,,,,,,,,,,,,,,,,,,NIE,,,,,,,,,,,,,
,,,,,,,,,,,,,,,,,,,,,,NIE,,,,,,,,,,,,,
,,,,,,,,,,,,,,,,,,,,,,NIE,,,,,,,,,,,,,
,,,,,,,,,,,,,,,,,,,,,,NIE,,,,,,,,,,,,,
,,,,,,,,,,,,,,,,,,,,,,NIE,,,,,,,,,,,,,
,,,,,,,,,,,,,,,,,,,,,,NIE,,,,,,,,,,,,,
,,,,,,,,,,,,,,,,,,,,,,NIE,,,,,,,,,,,,,
,,,,,,,,,,,,,,,,,,,,,,NIE,,,,,,,,,,,,,
,,,,,,,,,,,,,,,,,,,,,,NIE,,,,,,,,,,,,,
,,,,,,,,,,,,,,,,,,,,,,NIE,,,,,,,,,,,,,
,,,,,,,,,,,,,,,,,,,,,,NIE,,,,,,,,,,,,,
,,,,,,,,,,,,,,,,,,,,,,NIE,,,,,,,,,,,,,
,,,,,,,,,,,,,,,,,,,,,,NIE,,,,,,,,,,,,,
,,,,,,,,,,,,,,,,,,,,,,NIE,,,,,,,,,,,,,
,,,,,,,,,,,,,,,,,,,,,,NIE,,,,,,,,,,,,,
,,,,,,,,,,,,,,,,,,,,,,NIE,,,,,,,,,,,,,
,,,,,,,,,,,,,,,,,,,,,,NIE,,,,,,,,,,,,,
,,,,,,,,,,,,,,,,,,,,,,NIE,,,,,,,,,,,,,
,,,,,,,,,,,,,,,,,,,,,,NIE,,,,,,,,,,,,,
,,,,,,,,,,,,,,,,,,,,,,NIE,,,,,,,,,,,,,
,,,,,,,,,,,,,,,,,,,,,,NIE,,,,,,,,,,,,,
,,,,,,,,,,,,,,,,,,,,,,NIE,,,,,,,,,,,,,
,,,,,,,,,,,,,,,,,,,,,,NIE,,,,,,,,,,,,,
,,,,,,,,,,,,,,,,,,,,,,NIE,,,,,,,,,,,,,
,,,,,,,,,,,,,,,,,,,,,,NIE,,,,,,,,,,,,,
,,,,,,,,,,,,,,,,,,,,,,NIE,,,,,,,,,,,,,
,,,,,,,,,,,,,,,,,,,,,,NIE,,,,,,,,,,,,,
,,,,,,,,,,,,,,,,,,,,,,NIE,,,,,,,,,,,,,
,,,,,,,,,,,,,,,,,,,,,,NIE,,,,,,,,,,,,,
,,,,,,,,,,,,,,,,,,,,,,NIE,,,,,,,,,,,,,
,,,,,,,,,,,,,,,,,,,,,,NIE,,,,,,,,,,,,,
,,,,,,,,,,,,,,,,,,,,,,NIE,,,,,,,,,,,,,
,,,,,,,,,,,,,,,,,,,,,,NIE,,,,,,,,,,,,,
,,,,,,,,,,,,,,,,,,,,,,NIE,,,,,,,,,,,,,
,,,,,,,,,,,,,,,,,,,,,,NIE,,,,,,,,,,,,,
,,,,,,,,,,,,,,,,,,,,,,NIE,,,,,,,,,,,,,
,,,,,,,,,,,,,,,,,,,,,,NIE,,,,,,,,,,,,,
,,,,,,,,,,,,,,,,,,,,,,NIE,,,,,,,,,,,,,
,,,,,,,,,,,,,,,,,,,,,,NIE,,,,,,,,,,,,,
,,,,,,,,,,,,,,,,,,,,,,NIE,,,,,,,,,,,,,
,,,,,,,,,,,,,,,,,,,,,,NIE,,,,,,,,,,,,,
,,,,,,,,,,,,,,,,,,,,,,NIE,,,,,,,,,,,,,
,,,,,,,,,,,,,,,,,,,,,,NIE,,,,,,,,,,,,,
,,,,,,,,,,,,,,,,,,,,,,NIE,,,,,,,,,,,,,
,,,,,,,,,,,,,,,,,,,,,,NIE,,,,,,,,,,,,,
,,,,,,,,,,,,,,,,,,,,,,NIE,,,,,,,,,,,,,
,,,,,,,,,,,,,,,,,,,,,,NIE,,,,,,,,,,,,,
,,,,,,,,,,,,,,,,,,,,,,NIE,,,,,,,,,,,,,
,,,,,,,,,,,,,,,,,,,,,,NIE,,,,,,,,,,,,,
,,,,,,,,,,,,,,,,,,,,,,NIE,,,,,,,,,,,,,
,,,,,,,,,,,,,,,,,,,,,,NIE,,,,,,,,,,,,,
,,,,,,,,,,,,,,,,,,,,,,NIE,,,,,,,,,,,,,
,,,,,,,,,,,,,,,,,,,,,,NIE,,,,,,,,,,,,,
,,,,,,,,,,,,,,,,,,,,,,NIE,,,,,,,,,,,,,
,,,,,,,,,,,,,,,,,,,,,,NIE,,,,,,,,,,,,,
,,,,,,,,,,,,,,,,,,,,,,NIE,,,,,,,,,,,,,
,,,,,,,,,,,,,,,,,,,,,,NIE,,,,,,,,,,,,,
,,,,,,,,,,,,,,,,,,,,,,NIE,,,,,,,,,,,,,
,,,,,,,,,,,,,,,,,,,,,,NIE,,,,,,,,,,,,,
,,,,,,,,,,,,,,,,,,,,,,NIE,,,,,,,,,,,,,
,,,,,,,,,,,,,,,,,,,,,,NIE,,,,,,,,,,,,,
,,,,,,,,,,,,,,,,,,,,,,NIE,,,,,,,,,,,,,
,,,,,,,,,,,,,,,,,,,,,,NIE,,,,,,,,,,,,,
,,,,,,,,,,,,,,,,,,,,,,NIE,,,,,,,,,,,,,
,,,,,,,,,,,,,,,,,,,,,,NIE,,,,,,,,,,,,,
,,,,,,,,,,,,,,,,,,,,,,NIE,,,,,,,,,,,,,
,,,,,,,,,,,,,,,,,,,,,,NIE,,,,,,,,,,,,,
,,,,,,,,,,,,,,,,,,,,,,NIE,,,,,,,,,,,,,
,,,,,,,,,,,,,,,,,,,,,,NIE,,,,,,,,,,,,,
,,,,,,,,,,,,,,,,,,,,,,NIE,,,,,,,,,,,,,
,,,,,,,,,,,,,,,,,,,,,,NIE,,,,,,,,,,,,,
,,,,,,,,,,,,,,,,,,,,,,NIE,,,,,,,,,,,,,
,,,,,,,,,,,,,,,,,,,,,,NIE,,,,,,,,,,,,,
,,,,,,,,,,,,,,,,,,,,,,NIE,,,,,,,,,,,,,
,,,,,,,,,,,,,,,,,,,,,,NIE,,,,,,,,,,,,,
,,,,,,,,,,,,,,,,,,,,,,NIE,,,,,,,,,,,,,
,,,,,,,,,,,,,,,,,,,,,,NIE,,,,,,,,,,,,,
,,,,,,,,,,,,,,,,,,,,,,NIE,,,,,,,,,,,,,
,,,,,,,,,,,,,,,,,,,,,,NIE,,,,,,,,,,,,,
,,,,,,,,,,,,,,,,,,,,,,NIE,,,,,,,,,,,,,
,,,,,,,,,,,,,,,,,,,,,,NIE,,,,,,,,,,,,,
,,,,,,,,,,,,,,,,,,,,,,NIE,,,,,,,,,,,,,
,,,,,,,,,,,,,,,,,,,,,,NIE,,,,,,,,,,,,,
,,,,,,,,,,,,,,,,,,,,,,NIE,,,,,,,,,,,,,
,,,,,,,,,,,,,,,,,,,,,,NIE,,,,,,,,,,,,,
,,,,,,,,,,,,,,,,,,,,,,NIE,,,,,,,,,,,,,
,,,,,,,,,,,,,,,,,,,,,,NIE,,,,,,,,,,,,,
,,,,,,,,,,,,,,,,,,,,,,NIE,,,,,,,,,,,,,
,,,,,,,,,,,,,,,,,,,,,,NIE,,,,,,,,,,,,,
,,,,,,,,,,,,,,,,,,,,,,NIE,,,,,,,,,,,,,
,,,,,,,,,,,,,,,,,,,,,,NIE,,,,,,,,,,,,,
,,,,,,,,,,,,,,,,,,,,,,NIE,,,,,,,,,,,,,
,,,,,,,,,,,,,,,,,,,,,,NIE,,,,,,,,,,,,,
,,,,,,,,,,,,,,,,,,,,,,NIE,,,,,,,,,,,,,
,,,,,,,,,,,,,,,,,,,,,,NIE,,,,,,,,,,,,,
,,,,,,,,,,,,,,,,,,,,,,NIE,,,,,,,,,,,,,
,,,,,,,,,,,,,,,,,,,,,,NIE,,,,,,,,,,,,,
,,,,,,,,,,,,,,,,,,,,,,NIE,,,,,,,,,,,,,
,,,,,,,,,,,,,,,,,,,,,,NIE,,,,,,,,,,,,,
,,,,,,,,,,,,,,,,,,,,,,NIE,,,,,,,,,,,,,
,,,,,,,,,,,,,,,,,,,,,,NIE,,,,,,,,,,,,,
,,,,,,,,,,,,,,,,,,,,,,NIE,,,,,,,,,,,,,
,,,,,,,,,,,,,,,,,,,,,,NIE,,,,,,,,,,,,,
,,,,,,,,,,,,,,,,,,,,,,NIE,,,,,,,,,,,,,
,,,,,,,,,,,,,,,,,,,,,,NIE,,,,,,,,,,,,,
,,,,,,,,,,,,,,,,,,,,,,NIE,,,,,,,,,,,,,
,,,,,,,,,,,,,,,,,,,,,,NIE,,,,,,,,,,,,,
,,,,,,,,,,,,,,,,,,,,,,NIE,,,,,,,,,,,,,
,,,,,,,,,,,,,,,,,,,,,,NIE,,,,,,,,,,,,,
,,,,,,,,,,,,,,,,,,,,,,NIE,,,,,,,,,,,,,
,,,,,,,,,,,,,,,,,,,,,,NIE,,,,,,,,,,,,,
,,,,,,,,,,,,,,,,,,,,,,NIE,,,,,,,,,,,,,
,,,,,,,,,,,,,,,,,,,,,,NIE,,,,,,,,,,,,,
,,,,,,,,,,,,,,,,,,,,,,NIE,,,,,,,,,,,,,
,,,,,,,,,,,,,,,,,,,,,,NIE,,,,,,,,,,,,,
,,,,,,,,,,,,,,,,,,,,,,NIE,,,,,,,,,,,,,
,,,,,,,,,,,,,,,,,,,,,,NIE,,,,,,,,,,,,,
,,,,,,,,,,,,,,,,,,,,,,NIE,,,,,,,,,,,,,
,,,,,,,,,,,,,,,,,,,,,,NIE,,,,,,,,,,,,,
,,,,,,,,,,,,,,,,,,,,,,NIE,,,,,,,,,,,,,
,,,,,,,,,,,,,,,,,,,,,,NIE,,,,,,,,,,,,,
,,,,,,,,,,,,,,,,,,,,,,NIE,,,,,,,,,,,,,
,,,,,,,,,,,,,,,,,,,,,,NIE,,,,,,,,,,,,,
,,,,,,,,,,,,,,,,,,,,,,NIE,,,,,,,,,,,,,
,,,,,,,,,,,,,,,,,,,,,,NIE,,,,,,,,,,,,,
,,,,,,,,,,,,,,,,,,,,,,NIE,,,,,,,,,,,,,
,,,,,,,,,,,,,,,,,,,,,,NIE,,,,,,,,,,,,,
,,,,,,,,,,,,,,,,,,,,,,NIE,,,,,,,,,,,,,
,,,,,,,,,,,,,,,,,,,,,,NIE,,,,,,,,,,,,,
,,,,,,,,,,,,,,,,,,,,,,NIE,,,,,,,,,,,,,
,,,,,,,,,,,,,,,,,,,,,,NIE,,,,,,,,,,,,,
,,,,,,,,,,,,,,,,,,,,,,NIE,,,,,,,,,,,,,
,,,,,,,,,,,,,,,,,,,,,,NIE,,,,,,,,,,,,,
,,,,,,,,,,,,,,,,,,,,,,NIE,,,,,,,,,,,,,
,,,,,,,,,,,,,,,,,,,,,,NIE,,,,,,,,,,,,,
,,,,,,,,,,,,,,,,,,,,,,NIE,,,,,,,,,,,,,
,,,,,,,,,,,,,,,,,,,,,,NIE,,,,,,,,,,,,,
,,,,,,,,,,,,,,,,,,,,,,NIE,,,,,,,,,,,,,
,,,,,,,,,,,,,,,,,,,,,,NIE,,,,,,,,,,,,,
,,,,,,,,,,,,,,,,,,,,,,NIE,,,,,,,,,,,,,
,,,,,,,,,,,,,,,,,,,,,,NIE,,,,,,,,,,,,,
,,,,,,,,,,,,,,,,,,,,,,NIE,,,,,,,,,,,,,
,,,,,,,,,,,,,,,,,,,,,,NIE,,,,,,,,,,,,,
,,,,,,,,,,,,,,,,,,,,,,NIE,,,,,,,,,,,,,
,,,,,,,,,,,,,,,,,,,,,,NIE,,,,,,,,,,,,,
,,,,,,,,,,,,,,,,,,,,,,NIE,,,,,,,,,,,,,
,,,,,,,,,,,,,,,,,,,,,,NIE,,,,,,,,,,,,,
,,,,,,,,,,,,,,,,,,,,,,NIE,,,,,,,,,,,,,
,,,,,,,,,,,,,,,,,,,,,,NIE,,,,,,,,,,,,,
,,,,,,,,,,,,,,,,,,,,,,NIE,,,,,,,,,,,,,
,,,,,,,,,,,,,,,,,,,,,,NIE,,,,,,,,,,,,,
,,,,,,,,,,,,,,,,,,,,,,NIE,,,,,,,,,,,,,
,,,,,,,,,,,,,,,,,,,,,,NIE,,,,,,,,,,,,,
,,,,,,,,,,,,,,,,,,,,,,NIE,,,,,,,,,,,,,
,,,,,,,,,,,,,,,,,,,,,,NIE,,,,,,,,,,,,,
,,,,,,,,,,,,,,,,,,,,,,NIE,,,,,,,,,,,,,
,,,,,,,,,,,,,,,,,,,,,,NIE,,,,,,,,,,,,,
,,,,,,,,,,,,,,,,,,,,,,NIE,,,,,,,,,,,,,
,,,,,,,,,,,,,,,,,,,,,,NIE,,,,,,,,,,,,,
,,,,,,,,,,,,,,,,,,,,,,NIE,,,,,,,,,,,,,
,,,,,,,,,,,,,,,,,,,,,,NIE,,,,,,,,,,,,,
,,,,,,,,,,,,,,,,,,,,,,NIE,,,,,,,,,,,,,
,,,,,,,,,,,,,,,,,,,,,,NIE,,,,,,,,,,,,,
,,,,,,,,,,,,,,,,,,,,,,NIE,,,,,,,,,,,,,
,,,,,,,,,,,,,,,,,,,,,,NIE,,,,,,,,,,,,,
,,,,,,,,,,,,,,,,,,,,,,NIE,,,,,,,,,,,,,
,,,,,,,,,,,,,,,,,,,,,,NIE,,,,,,,,,,,,,
,,,,,,,,,,,,,,,,,,,,,,NIE,,,,,,,,,,,,,
,,,,,,,,,,,,,,,,,,,,,,NIE,,,,,,,,,,,,,
,,,,,,,,,,,,,,,,,,,,,,NIE,,,,,,,,,,,,,
,,,,,,,,,,,,,,,,,,,,,,NIE,,,,,,,,,,,,,
,,,,,,,,,,,,,,,,,,,,,,NIE,,,,,,,,,,,,,
,,,,,,,,,,,,,,,,,,,,,,NIE,,,,,,,,,,,,,
,,,,,,,,,,,,,,,,,,,,,,NIE,,,,,,,,,,,,,
,,,,,,,,,,,,,,,,,,,,,,NIE,,,,,,,,,,,,,
,,,,,,,,,,,,,,,,,,,,,,NIE,,,,,,,,,,,,,
,,,,,,,,,,,,,,,,,,,,,,NIE,,,,,,,,,,,,,
,,,,,,,,,,,,,,,,,,,,,,NIE,,,,,,,,,,,,,
,,,,,,,,,,,,,,,,,,,,,,NIE,,,,,,,,,,,,,
,,,,,,,,,,,,,,,,,,,,,,NIE,,,,,,,,,,,,,
,,,,,,,,,,,,,,,,,,,,,,NIE,,,,,,,,,,,,,
,,,,,,,,,,,,,,,,,,,,,,NIE,,,,,,,,,,,,,
,,,,,,,,,,,,,,,,,,,,,,NIE,,,,,,,,,,,,,
,,,,,,,,,,,,,,,,,,,,,,NIE,,,,,,,,,,,,,
,,,,,,,,,,,,,,,,,,,,,,NIE,,,,,,,,,,,,,
,,,,,,,,,,,,,,,,,,,,,,NIE,,,,,,,,,,,,,
,,,,,,,,,,,,,,,,,,,,,,NIE,,,,,,,,,,,,,
,,,,,,,,,,,,,,,,,,,,,,NIE,,,,,,,,,,,,,
,,,,,,,,,,,,,,,,,,,,,,NIE,,,,,,,,,,,,,
,,,,,,,,,,,,,,,,,,,,,,NIE,,,,,,,,,,,,,
,,,,,,,,,,,,,,,,,,,,,,NIE,,,,,,,,,,,,,
,,,,,,,,,,,,,,,,,,,,,,NIE,,,,,,,,,,,,,
,,,,,,,,,,,,,,,,,,,,,,NIE,,,,,,,,,,,,,
,,,,,,,,,,,,,,,,,,,,,,NIE,,,,,,,,,,,,,
,,,,,,,,,,,,,,,,,,,,,,NIE,,,,,,,,,,,,,
,,,,,,,,,,,,,,,,,,,,,,NIE,,,,,,,,,,,,,
,,,,,,,,,,,,,,,,,,,,,,NIE,,,,,,,,,,,,,
,,,,,,,,,,,,,,,,,,,,,,NIE,,,,,,,,,,,,,
,,,,,,,,,,,,,,,,,,,,,,NIE,,,,,,,,,,,,,
,,,,,,,,,,,,,,,,,,,,,,NIE,,,,,,,,,,,,,
,,,,,,,,,,,,,,,,,,,,,,NIE,,,,,,,,,,,,,
,,,,,,,,,,,,,,,,,,,,,,NIE,,,,,,,,,,,,,
,,,,,,,,,,,,,,,,,,,,,,NIE,,,,,,,,,,,,,
,,,,,,,,,,,,,,,,,,,,,,NIE,,,,,,,,,,,,,
,,,,,,,,,,,,,,,,,,,,,,NIE,,,,,,,,,,,,,
,,,,,,,,,,,,,,,,,,,,,,NIE,,,,,,,,,,,,,
,,,,,,,,,,,,,,,,,,,,,,NIE,,,,,,,,,,,,,
,,,,,,,,,,,,,,,,,,,,,,NIE,,,,,,,,,,,,,
,,,,,,,,,,,,,,,,,,,,,,NIE,,,,,,,,,,,,,
,,,,,,,,,,,,,,,,,,,,,,NIE,,,,,,,,,,,,,
,,,,,,,,,,,,,,,,,,,,,,NIE,,,,,,,,,,,,,
,,,,,,,,,,,,,,,,,,,,,,NIE,,,,,,,,,,,,,
,,,,,,,,,,,,,,,,,,,,,,NIE,,,,,,,,,,,,,
,,,,,,,,,,,,,,,,,,,,,,NIE,,,,,,,,,,,,,
,,,,,,,,,,,,,,,,,,,,,,NIE,,,,,,,,,,,,,
,,,,,,,,,,,,,,,,,,,,,,NIE,,,,,,,,,,,,,
,,,,,,,,,,,,,,,,,,,,,,NIE,,,,,,,,,,,,,
,,,,,,,,,,,,,,,,,,,,,,NIE,,,,,,,,,,,,,
,,,,,,,,,,,,,,,,,,,,,,NIE,,,,,,,,,,,,,
,,,,,,,,,,,,,,,,,,,,,,NIE,,,,,,,,,,,,,
,,,,,,,,,,,,,,,,,,,,,,NIE,,,,,,,,,,,,,
,,,,,,,,,,,,,,,,,,,,,,NIE,,,,,,,,,,,,,
,,,,,,,,,,,,,,,,,,,,,,NIE,,,,,,,,,,,,,
,,,,,,,,,,,,,,,,,,,,,,NIE,,,,,,,,,,,,,
,,,,,,,,,,,,,,,,,,,,,,NIE,,,,,,,,,,,,,
,,,,,,,,,,,,,,,,,,,,,,NIE,,,,,,,,,,,,,
,,,,,,,,,,,,,,,,,,,,,,NIE,,,,,,,,,,,,,
,,,,,,,,,,,,,,,,,,,,,,NIE,,,,,,,,,,,,,
,,,,,,,,,,,,,,,,,,,,,,NIE,,,,,,,,,,,,,
,,,,,,,,,,,,,,,,,,,,,,NIE,,,,,,,,,,,,,
,,,,,,,,,,,,,,,,,,,,,,NIE,,,,,,,,,,,,,
,,,,,,,,,,,,,,,,,,,,,,NIE,,,,,,,,,,,,,
,,,,,,,,,,,,,,,,,,,,,,NIE,,,,,,,,,,,,,
,,,,,,,,,,,,,,,,,,,,,,NIE,,,,,,,,,,,,,
,,,,,,,,,,,,,,,,,,,,,,NIE,,,,,,,,,,,,,
,,,,,,,,,,,,,,,,,,,,,,NIE,,,,,,,,,,,,,
,,,,,,,,,,,,,,,,,,,,,,NIE,,,,,,,,,,,,,
,,,,,,,,,,,,,,,,,,,,,,NIE,,,,,,,,,,,,,
,,,,,,,,,,,,,,,,,,,,,,NIE,,,,,,,,,,,,,
,,,,,,,,,,,,,,,,,,,,,,NIE,,,,,,,,,,,,,
,,,,,,,,,,,,,,,,,,,,,,NIE,,,,,,,,,,,,,
,,,,,,,,,,,,,,,,,,,,,,NIE,,,,,,,,,,,,,
,,,,,,,,,,,,,,,,,,,,,,NIE,,,,,,,,,,,,,
,,,,,,,,,,,,,,,,,,,,,,NIE,,,,,,,,,,,,,
,,,,,,,,,,,,,,,,,,,,,,NIE,,,,,,,,,,,,,
,,,,,,,,,,,,,,,,,,,,,,NIE,,,,,,,,,,,,,
,,,,,,,,,,,,,,,,,,,,,,NIE,,,,,,,,,,,,,
,,,,,,,,,,,,,,,,,,,,,,NIE,,,,,,,,,,,,,
,,,,,,,,,,,,,,,,,,,,,,NIE,,,,,,,,,,,,,
,,,,,,,,,,,,,,,,,,,,,,NIE,,,,,,,,,,,,,
,,,,,,,,,,,,,,,,,,,,,,NIE,,,,,,,,,,,,,
,,,,,,,,,,,,,,,,,,,,,,NIE,,,,,,,,,,,,,
,,,,,,,,,,,,,,,,,,,,,,NIE,,,,,,,,,,,,,
,,,,,,,,,,,,,,,,,,,,,,NIE,,,,,,,,,,,,,
,,,,,,,,,,,,,,,,,,,,,,NIE,,,,,,,,,,,,,
,,,,,,,,,,,,,,,,,,,,,,NIE,,,,,,,,,,,,,
,,,,,,,,,,,,,,,,,,,,,,NIE,,,,,,,,,,,,,
,,,,,,,,,,,,,,,,,,,,,,NIE,,,,,,,,,,,,,
,,,,,,,,,,,,,,,,,,,,,,NIE,,,,,,,,,,,,,
,,,,,,,,,,,,,,,,,,,,,,NIE,,,,,,,,,,,,,
,,,,,,,,,,,,,,,,,,,,,,NIE,,,,,,,,,,,,,
,,,,,,,,,,,,,,,,,,,,,,NIE,,,,,,,,,,,,,
,,,,,,,,,,,,,,,,,,,,,,NIE,,,,,,,,,,,,,
,,,,,,,,,,,,,,,,,,,,,,NIE,,,,,,,,,,,,,
,,,,,,,,,,,,,,,,,,,,,,NIE,,,,,,,,,,,,,
,,,,,,,,,,,,,,,,,,,,,,NIE,,,,,,,,,,,,,
,,,,,,,,,,,,,,,,,,,,,,NIE,,,,,,,,,,,,,
,,,,,,,,,,,,,,,,,,,,,,NIE,,,,,,,,,,,,,
,,,,,,,,,,,,,,,,,,,,,,NIE,,,,,,,,,,,,,
,,,,,,,,,,,,,,,,,,,,,,NIE,,,,,,,,,,,,,
,,,,,,,,,,,,,,,,,,,,,,NIE,,,,,,,,,,,,,
,,,,,,,,,,,,,,,,,,,,,,NIE,,,,,,,,,,,,,
,,,,,,,,,,,,,,,,,,,,,,NIE,,,,,,,,,,,,,
,,,,,,,,,,,,,,,,,,,,,,NIE,,,,,,,,,,,,,
,,,,,,,,,,,,,,,,,,,,,,NIE,,,,,,,,,,,,,
,,,,,,,,,,,,,,,,,,,,,,NIE,,,,,,,,,,,,,
,,,,,,,,,,,,,,,,,,,,,,NIE,,,,,,,,,,,,,
,,,,,,,,,,,,,,,,,,,,,,NIE,,,,,,,,,,,,,
,,,,,,,,,,,,,,,,,,,,,,NIE,,,,,,,,,,,,,
,,,,,,,,,,,,,,,,,,,,,,NIE,,,,,,,,,,,,,
,,,,,,,,,,,,,,,,,,,,,,NIE,,,,,,,,,,,,,
,,,,,,,,,,,,,,,,,,,,,,NIE,,,,,,,,,,,,,
,,,,,,,,,,,,,,,,,,,,,,NIE,,,,,,,,,,,,,
,,,,,,,,,,,,,,,,,,,,,,NIE,,,,,,,,,,,,,
,,,,,,,,,,,,,,,,,,,,,,NIE,,,,,,,,,,,,,
,,,,,,,,,,,,,,,,,,,,,,NIE,,,,,,,,,,,,,
,,,,,,,,,,,,,,,,,,,,,,NIE,,,,,,,,,,,,,
,,,,,,,,,,,,,,,,,,,,,,NIE,,,,,,,,,,,,,
,,,,,,,,,,,,,,,,,,,,,,NIE,,,,,,,,,,,,,
,,,,,,,,,,,,,,,,,,,,,,NIE,,,,,,,,,,,,,
,,,,,,,,,,,,,,,,,,,,,,NIE,,,,,,,,,,,,,
,,,,,,,,,,,,,,,,,,,,,,NIE,,,,,,,,,,,,,
,,,,,,,,,,,,,,,,,,,,,,NIE,,,,,,,,,,,,,
,,,,,,,,,,,,,,,,,,,,,,NIE,,,,,,,,,,,,,
,,,,,,,,,,,,,,,,,,,,,,NIE,,,,,,,,,,,,,
,,,,,,,,,,,,,,,,,,,,,,NIE,,,,,,,,,,,,,
,,,,,,,,,,,,,,,,,,,,,,NIE,,,,,,,,,,,,,
,,,,,,,,,,,,,,,,,,,,,,NIE,,,,,,,,,,,,,
,,,,,,,,,,,,,,,,,,,,,,NIE,,,,,,,,,,,,,
,,,,,,,,,,,,,,,,,,,,,,NIE,,,,,,,,,,,,,
,,,,,,,,,,,,,,,,,,,,,,NIE,,,,,,,,,,,,,
,,,,,,,,,,,,,,,,,,,,,,NIE,,,,,,,,,,,,,
,,,,,,,,,,,,,,,,,,,,,,NIE,,,,,,,,,,,,,
,,,,,,,,,,,,,,,,,,,,,,NIE,,,,,,,,,,,,,
,,,,,,,,,,,,,,,,,,,,,,NIE,,,,,,,,,,,,,
,,,,,,,,,,,,,,,,,,,,,,NIE,,,,,,,,,,,,,
,,,,,,,,,,,,,,,,,,,,,,NIE,,,,,,,,,,,,,
,,,,,,,,,,,,,,,,,,,,,,NIE,,,,,,,,,,,,,
,,,,,,,,,,,,,,,,,,,,,,NIE,,,,,,,,,,,,,
,,,,,,,,,,,,,,,,,,,,,,NIE,,,,,,,,,,,,,
,,,,,,,,,,,,,,,,,,,,,,NIE,,,,,,,,,,,,,
,,,,,,,,,,,,,,,,,,,,,,NIE,,,,,,,,,,,,,
,,,,,,,,,,,,,,,,,,,,,,NIE,,,,,,,,,,,,,
,,,,,,,,,,,,,,,,,,,,,,NIE,,,,,,,,,,,,,
,,,,,,,,,,,,,,,,,,,,,,NIE,,,,,,,,,,,,,
,,,,,,,,,,,,,,,,,,,,,,NIE,,,,,,,,,,,,,
,,,,,,,,,,,,,,,,,,,,,,NIE,,,,,,,,,,,,,
,,,,,,,,,,,,,,,,,,,,,,NIE,,,,,,,,,,,,,
,,,,,,,,,,,,,,,,,,,,,,NIE,,,,,,,,,,,,,
,,,,,,,,,,,,,,,,,,,,,,NIE,,,,,,,,,,,,,
,,,,,,,,,,,,,,,,,,,,,,NIE,,,,,,,,,,,,,
,,,,,,,,,,,,,,,,,,,,,,NIE,,,,,,,,,,,,,
,,,,,,,,,,,,,,,,,,,,,,NIE,,,,,,,,,,,,,
,,,,,,,,,,,,,,,,,,,,,,NIE,,,,,,,,,,,,,
,,,,,,,,,,,,,,,,,,,,,,NIE,,,,,,,,,,,,,
,,,,,,,,,,,,,,,,,,,,,,NIE,,,,,,,,,,,,,
,,,,,,,,,,,,,,,,,,,,,,NIE,,,,,,,,,,,,,
,,,,,,,,,,,,,,,,,,,,,,NIE,,,,,,,,,,,,,
,,,,,,,,,,,,,,,,,,,,,,NIE,,,,,,,,,,,,,
,,,,,,,,,,,,,,,,,,,,,,NIE,,,,,,,,,,,,,
,,,,,,,,,,,,,,,,,,,,,,NIE,,,,,,,,,,,,,
,,,,,,,,,,,,,,,,,,,,,,NIE,,,,,,,,,,,,,
,,,,,,,,,,,,,,,,,,,,,,NIE,,,,,,,,,,,,,
,,,,,,,,,,,,,,,,,,,,,,NIE,,,,,,,,,,,,,
,,,,,,,,,,,,,,,,,,,,,,NIE,,,,,,,,,,,,,
,,,,,,,,,,,,,,,,,,,,,,NIE,,,,,,,,,,,,,
,,,,,,,,,,,,,,,,,,,,,,NIE,,,,,,,,,,,,,
,,,,,,,,,,,,,,,,,,,,,,NIE,,,,,,,,,,,,,
,,,,,,,,,,,,,,,,,,,,,,NIE,,,,,,,,,,,,,
,,,,,,,,,,,,,,,,,,,,,,NIE,,,,,,,,,,,,,
,,,,,,,,,,,,,,,,,,,,,,NIE,,,,,,,,,,,,,
,,,,,,,,,,,,,,,,,,,,,,NIE,,,,,,,,,,,,,
,,,,,,,,,,,,,,,,,,,,,,NIE,,,,,,,,,,,,,
,,,,,,,,,,,,,,,,,,,,,,NIE,,,,,,,,,,,,,
,,,,,,,,,,,,,,,,,,,,,,NIE,,,,,,,,,,,,,
,,,,,,,,,,,,,,,,,,,,,,NIE,,,,,,,,,,,,,
,,,,,,,,,,,,,,,,,,,,,,NIE,,,,,,,,,,,,,
,,,,,,,,,,,,,,,,,,,,,,NIE,,,,,,,,,,,,,
,,,,,,,,,,,,,,,,,,,,,,NIE,,,,,,,,,,,,,
,,,,,,,,,,,,,,,,,,,,,,NIE,,,,,,,,,,,,,
,,,,,,,,,,,,,,,,,,,,,,NIE,,,,,,,,,,,,,
,,,,,,,,,,,,,,,,,,,,,,NIE,,,,,,,,,,,,,
,,,,,,,,,,,,,,,,,,,,,,NIE,,,,,,,,,,,,,
,,,,,,,,,,,,,,,,,,,,,,NIE,,,,,,,,,,,,,
,,,,,,,,,,,,,,,,,,,,,,NIE,,,,,,,,,,,,,
,,,,,,,,,,,,,,,,,,,,,,NIE,,,,,,,,,,,,,
,,,,,,,,,,,,,,,,,,,,,,NIE,,,,,,,,,,,,,
,,,,,,,,,,,,,,,,,,,,,,NIE,,,,,,,,,,,,,
,,,,,,,,,,,,,,,,,,,,,,NIE,,,,,,,,,,,,,
,,,,,,,,,,,,,,,,,,,,,,NIE,,,,,,,,,,,,,
,,,,,,,,,,,,,,,,,,,,,,NIE,,,,,,,,,,,,,
,,,,,,,,,,,,,,,,,,,,,,NIE,,,,,,,,,,,,,
,,,,,,,,,,,,,,,,,,,,,,NIE,,,,,,,,,,,,,
,,,,,,,,,,,,,,,,,,,,,,NIE,,,,,,,,,,,,,
,,,,,,,,,,,,,,,,,,,,,,NIE,,,,,,,,,,,,,
,,,,,,,,,,,,,,,,,,,,,,NIE,,,,,,,,,,,,,
,,,,,,,,,,,,,,,,,,,,,,NIE,,,,,,,,,,,,,
,,,,,,,,,,,,,,,,,,,,,,NIE,,,,,,,,,,,,,
,,,,,,,,,,,,,,,,,,,,,,NIE,,,,,,,,,,,,,
,,,,,,,,,,,,,,,,,,,,,,NIE,,,,,,,,,,,,,
,,,,,,,,,,,,,,,,,,,,,,NIE,,,,,,,,,,,,,
,,,,,,,,,,,,,,,,,,,,,,NIE,,,,,,,,,,,,,
,,,,,,,,,,,,,,,,,,,,,,NIE,,,,,,,,,,,,,
,,,,,,,,,,,,,,,,,,,,,,NIE,,,,,,,,,,,,,
,,,,,,,,,,,,,,,,,,,,,,NIE,,,,,,,,,,,,,
,,,,,,,,,,,,,,,,,,,,,,NIE,,,,,,,,,,,,,
,,,,,,,,,,,,,,,,,,,,,,NIE,,,,,,,,,,,,,
,,,,,,,,,,,,,,,,,,,,,,NIE,,,,,,,,,,,,,
,,,,,,,,,,,,,,,,,,,,,,NIE,,,,,,,,,,,,,
,,,,,,,,,,,,,,,,,,,,,,NIE,,,,,,,,,,,,,
,,,,,,,,,,,,,,,,,,,,,,NIE,,,,,,,,,,,,,
,,,,,,,,,,,,,,,,,,,,,,NIE,,,,,,,,,,,,,
,,,,,,,,,,,,,,,,,,,,,,NIE,,,,,,,,,,,,,
,,,,,,,,,,,,,,,,,,,,,,NIE,,,,,,,,,,,,,
,,,,,,,,,,,,,,,,,,,,,,NIE,,,,,,,,,,,,,
,,,,,,,,,,,,,,,,,,,,,,NIE,,,,,,,,,,,,,
,,,,,,,,,,,,,,,,,,,,,,NIE,,,,,,,,,,,,,
,,,,,,,,,,,,,,,,,,,,,,NIE,,,,,,,,,,,,,
,,,,,,,,,,,,,,,,,,,,,,NIE,,,,,,,,,,,,,
,,,,,,,,,,,,,,,,,,,,,,NIE,,,,,,,,,,,,,
,,,,,,,,,,,,,,,,,,,,,,NIE,,,,,,,,,,,,,
,,,,,,,,,,,,,,,,,,,,,,NIE,,,,,,,,,,,,,
,,,,,,,,,,,,,,,,,,,,,,NIE,,,,,,,,,,,,,
,,,,,,,,,,,,,,,,,,,,,,NIE,,,,,,,,,,,,,
,,,,,,,,,,,,,,,,,,,,,,NIE,,,,,,,,,,,,,
,,,,,,,,,,,,,,,,,,,,,,NIE,,,,,,,,,,,,,
,,,,,,,,,,,,,,,,,,,,,,NIE,,,,,,,,,,,,,
,,,,,,,,,,,,,,,,,,,,,,NIE,,,,,,,,,,,,,
,,,,,,,,,,,,,,,,,,,,,,NIE,,,,,,,,,,,,,
,,,,,,,,,,,,,,,,,,,,,,NIE,,,,,,,,,,,,,
,,,,,,,,,,,,,,,,,,,,,,NIE,,,,,,,,,,,,,
,,,,,,,,,,,,,,,,,,,,,,NIE,,,,,,,,,,,,,
,,,,,,,,,,,,,,,,,,,,,,NIE,,,,,,,,,,,,,
,,,,,,,,,,,,,,,,,,,,,,NIE,,,,,,,,,,,,,
,,,,,,,,,,,,,,,,,,,,,,NIE,,,,,,,,,,,,,
,,,,,,,,,,,,,,,,,,,,,,NIE,,,,,,,,,,,,,
,,,,,,,,,,,,,,,,,,,,,,NIE,,,,,,,,,,,,,
,,,,,,,,,,,,,,,,,,,,,,NIE,,,,,,,,,,,,,
,,,,,,,,,,,,,,,,,,,,,,NIE,,,,,,,,,,,,,
,,,,,,,,,,,,,,,,,,,,,,NIE,,,,,,,,,,,,,
,,,,,,,,,,,,,,,,,,,,,,NIE,,,,,,,,,,,,,
,,,,,,,,,,,,,,,,,,,,,,NIE,,,,,,,,,,,,,
,,,,,,,,,,,,,,,,,,,,,,NIE,,,,,,,,,,,,,
,,,,,,,,,,,,,,,,,,,,,,NIE,,,,,,,,,,,,,
,,,,,,,,,,,,,,,,,,,,,,NIE,,,,,,,,,,,,,
,,,,,,,,,,,,,,,,,,,,,,NIE,,,,,,,,,,,,,
,,,,,,,,,,,,,,,,,,,,,,NIE,,,,,,,,,,,,,
,,,,,,,,,,,,,,,,,,,,,,NIE,,,,,,,,,,,,,
,,,,,,,,,,,,,,,,,,,,,,NIE,,,,,,,,,,,,,
,,,,,,,,,,,,,,,,,,,,,,NIE,,,,,,,,,,,,,
,,,,,,,,,,,,,,,,,,,,,,NIE,,,,,,,,,,,,,
,,,,,,,,,,,,,,,,,,,,,,NIE,,,,,,,,,,,,,
,,,,,,,,,,,,,,,,,,,,,,NIE,,,,,,,,,,,,,
,,,,,,,,,,,,,,,,,,,,,,NIE,,,,,,,,,,,,,
,,,,,,,,,,,,,,,,,,,,,,NIE,,,,,,,,,,,,,
,,,,,,,,,,,,,,,,,,,,,,NIE,,,,,,,,,,,,,
,,,,,,,,,,,,,,,,,,,,,,NIE,,,,,,,,,,,,,
,,,,,,,,,,,,,,,,,,,,,,NIE,,,,,,,,,,,,,
,,,,,,,,,,,,,,,,,,,,,,NIE,,,,,,,,,,,,,
,,,,,,,,,,,,,,,,,,,,,,NIE,,,,,,,,,,,,,
,,,,,,,,,,,,,,,,,,,,,,NIE,,,,,,,,,,,,,
,,,,,,,,,,,,,,,,,,,,,,NIE,,,,,,,,,,,,,
,,,,,,,,,,,,,,,,,,,,,,NIE,,,,,,,,,,,,,
,,,,,,,,,,,,,,,,,,,,,,NIE,,,,,,,,,,,,,
,,,,,,,,,,,,,,,,,,,,,,NIE,,,,,,,,,,,,,
,,,,,,,,,,,,,,,,,,,,,,NIE,,,,,,,,,,,,,
,,,,,,,,,,,,,,,,,,,,,,NIE,,,,,,,,,,,,,
,,,,,,,,,,,,,,,,,,,,,,NIE,,,,,,,,,,,,,
,,,,,,,,,,,,,,,,,,,,,,NIE,,,,,,,,,,,,,
,,,,,,,,,,,,,,,,,,,,,,NIE,,,,,,,,,,,,,
,,,,,,,,,,,,,,,,,,,,,,NIE,,,,,,,,,,,,,
,,,,,,,,,,,,,,,,,,,,,,NIE,,,,,,,,,,,,,
,,,,,,,,,,,,,,,,,,,,,,NIE,,,,,,,,,,,,,
,,,,,,,,,,,,,,,,,,,,,,NIE,,,,,,,,,,,,,
,,,,,,,,,,,,,,,,,,,,,,NIE,,,,,,,,,,,,,
,,,,,,,,,,,,,,,,,,,,,,NIE,,,,,,,,,,,,,
,,,,,,,,,,,,,,,,,,,,,,NIE,,,,,,,,,,,,,
,,,,,,,,,,,,,,,,,,,,,,NIE,,,,,,,,,,,,,
,,,,,,,,,,,,,,,,,,,,,,NIE,,,,,,,,,,,,,
,,,,,,,,,,,,,,,,,,,,,,NIE,,,,,,,,,,,,,
,,,,,,,,,,,,,,,,,,,,,,NIE,,,,,,,,,,,,,
,,,,,,,,,,,,,,,,,,,,,,NIE,,,,,,,,,,,,,
,,,,,,,,,,,,,,,,,,,,,,NIE,,,,,,,,,,,,,
,,,,,,,,,,,,,,,,,,,,,,NIE,,,,,,,,,,,,,
,,,,,,,,,,,,,,,,,,,,,,NIE,,,,,,,,,,,,,
,,,,,,,,,,,,,,,,,,,,,,NIE,,,,,,,,,,,,,
,,,,,,,,,,,,,,,,,,,,,,NIE,,,,,,,,,,,,,
,,,,,,,,,,,,,,,,,,,,,,NIE,,,,,,,,,,,,,
,,,,,,,,,,,,,,,,,,,,,,NIE,,,,,,,,,,,,,
,,,,,,,,,,,,,,,,,,,,,,NIE,,,,,,,,,,,,,
,,,,,,,,,,,,,,,,,,,,,,NIE,,,,,,,,,,,,,
,,,,,,,,,,,,,,,,,,,,,,NIE,,,,,,,,,,,,,
,,,,,,,,,,,,,,,,,,,,,,NIE,,,,,,,,,,,,,
,,,,,,,,,,,,,,,,,,,,,,NIE,,,,,,,,,,,,,
,,,,,,,,,,,,,,,,,,,,,,NIE,,,,,,,,,,,,,
,,,,,,,,,,,,,,,,,,,,,,NIE,,,,,,,,,,,,,
,,,,,,,,,,,,,,,,,,,,,,NIE,,,,,,,,,,,,,
,,,,,,,,,,,,,,,,,,,,,,NIE,,,,,,,,,,,,,
,,,,,,,,,,,,,,,,,,,,,,NIE,,,,,,,,,,,,,
,,,,,,,,,,,,,,,,,,,,,,NIE,,,,,,,,,,,,,
,,,,,,,,,,,,,,,,,,,,,,NIE,,,,,,,,,,,,,
,,,,,,,,,,,,,,,,,,,,,,NIE,,,,,,,,,,,,,
,,,,,,,,,,,,,,,,,,,,,,NIE,,,,,,,,,,,,,
,,,,,,,,,,,,,,,,,,,,,,NIE,,,,,,,,,,,,,
,,,,,,,,,,,,,,,,,,,,,,NIE,,,,,,,,,,,,,
,,,,,,,,,,,,,,,,,,,,,,NIE,,,,,,,,,,,,,
,,,,,,,,,,,,,,,,,,,,,,NIE,,,,,,,,,,,,,
,,,,,,,,,,,,,,,,,,,,,,NIE,,,,,,,,,,,,,
,,,,,,,,,,,,,,,,,,,,,,NIE,,,,,,,,,,,,,
,,,,,,,,,,,,,,,,,,,,,,NIE,,,,,,,,,,,,,
,,,,,,,,,,,,,,,,,,,,,,NIE,,,,,,,,,,,,,
,,,,,,,,,,,,,,,,,,,,,,NIE,,,,,,,,,,,,,
,,,,,,,,,,,,,,,,,,,,,,NIE,,,,,,,,,,,,,
,,,,,,,,,,,,,,,,,,,,,,NIE,,,,,,,,,,,,,
,,,,,,,,,,,,,,,,,,,,,,NIE,,,,,,,,,,,,,
,,,,,,,,,,,,,,,,,,,,,,NIE,,,,,,,,,,,,,
,,,,,,,,,,,,,,,,,,,,,,NIE,,,,,,,,,,,,,
,,,,,,,,,,,,,,,,,,,,,,NIE,,,,,,,,,,,,,
,,,,,,,,,,,,,,,,,,,,,,NIE,,,,,,,,,,,,,
,,,,,,,,,,,,,,,,,,,,,,NIE,,,,,,,,,,,,,
,,,,,,,,,,,,,,,,,,,,,,NIE,,,,,,,,,,,,,
,,,,,,,,,,,,,,,,,,,,,,NIE,,,,,,,,,,,,,
,,,,,,,,,,,,,,,,,,,,,,NIE,,,,,,,,,,,,,
,,,,,,,,,,,,,,,,,,,,,,NIE,,,,,,,,,,,,,
,,,,,,,,,,,,,,,,,,,,,,NIE,,,,,,,,,,,,,
,,,,,,,,,,,,,,,,,,,,,,NIE,,,,,,,,,,,,,
,,,,,,,,,,,,,,,,,,,,,,NIE,,,,,,,,,,,,,
,,,,,,,,,,,,,,,,,,,,,,NIE,,,,,,,,,,,,,
,,,,,,,,,,,,,,,,,,,,,,NIE,,,,,,,,,,,,,
,,,,,,,,,,,,,,,,,,,,,,NIE,,,,,,,,,,,,,
,,,,,,,,,,,,,,,,,,,,,,NIE,,,,,,,,,,,,,
,,,,,,,,,,,,,,,,,,,,,,NIE,,,,,,,,,,,,,
,,,,,,,,,,,,,,,,,,,,,,NIE,,,,,,,,,,,,,
,,,,,,,,,,,,,,,,,,,,,,NIE,,,,,,,,,,,,,
,,,,,,,,,,,,,,,,,,,,,,NIE,,,,,,,,,,,,,
,,,,,,,,,,,,,,,,,,,,,,NIE,,,,,,,,,,,,,
,,,,,,,,,,,,,,,,,,,,,,NIE,,,,,,,,,,,,,
,,,,,,,,,,,,,,,,,,,,,,NIE,,,,,,,,,,,,,
,,,,,,,,,,,,,,,,,,,,,,NIE,,,,,,,,,,,,,
,,,,,,,,,,,,,,,,,,,,,,NIE,,,,,,,,,,,,,
,,,,,,,,,,,,,,,,,,,,,,NIE,,,,,,,,,,,,,
,,,,,,,,,,,,,,,,,,,,,,NIE,,,,,,,,,,,,,
,,,,,,,,,,,,,,,,,,,,,,NIE,,,,,,,,,,,,,
,,,,,,,,,,,,,,,,,,,,,,NIE,,,,,,,,,,,,,
,,,,,,,,,,,,,,,,,,,,,,NIE,,,,,,,,,,,,,
,,,,,,,,,,,,,,,,,,,,,,NIE,,,,,,,,,,,,,
,,,,,,,,,,,,,,,,,,,,,,NIE,,,,,,,,,,,,,
,,,,,,,,,,,,,,,,,,,,,,NIE,,,,,,,,,,,,,
,,,,,,,,,,,,,,,,,,,,,,NIE,,,,,,,,,,,,,
,,,,,,,,,,,,,,,,,,,,,,NIE,,,,,,,,,,,,,
,,,,,,,,,,,,,,,,,,,,,,NIE,,,,,,,,,,,,,
,,,,,,,,,,,,,,,,,,,,,,NIE,,,,,,,,,,,,,
,,,,,,,,,,,,,,,,,,,,,,NIE,,,,,,,,,,,,,
,,,,,,,,,,,,,,,,,,,,,,NIE,,,,,,,,,,,,,
,,,,,,,,,,,,,,,,,,,,,,NIE,,,,,,,,,,,,,
,,,,,,,,,,,,,,,,,,,,,,NIE,,,,,,,,,,,,,
,,,,,,,,,,,,,,,,,,,,,,NIE,,,,,,,,,,,,,
,,,,,,,,,,,,,,,,,,,,,,NIE,,,,,,,,,,,,,
,,,,,,,,,,,,,,,,,,,,,,NIE,,,,,,,,,,,,,
,,,,,,,,,,,,,,,,,,,,,,NIE,,,,,,,,,,,,,
,,,,,,,,,,,,,,,,,,,,,,NIE,,,,,,,,,,,,,
,,,,,,,,,,,,,,,,,,,,,,NIE,,,,,,,,,,,,,
,,,,,,,,,,,,,,,,,,,,,,NIE,,,,,,,,,,,,,
,,,,,,,,,,,,,,,,,,,,,,NIE,,,,,,,,,,,,,
,,,,,,,,,,,,,,,,,,,,,,NIE,,,,,,,,,,,,,
,,,,,,,,,,,,,,,,,,,,,,NIE,,,,,,,,,,,,,
,,,,,,,,,,,,,,,,,,,,,,NIE,,,,,,,,,,,,,
,,,,,,,,,,,,,,,,,,,,,,NIE,,,,,,,,,,,,,
,,,,,,,,,,,,,,,,,,,,,,NIE,,,,,,,,,,,,,
,,,,,,,,,,,,,,,,,,,,,,NIE,,,,,,,,,,,,,
,,,,,,,,,,,,,,,,,,,,,,NIE,,,,,,,,,,,,,
,,,,,,,,,,,,,,,,,,,,,,NIE,,,,,,,,,,,,,
,,,,,,,,,,,,,,,,,,,,,,NIE,,,,,,,,,,,,,
,,,,,,,,,,,,,,,,,,,,,,NIE,,,,,,,,,,,,,
,,,,,,,,,,,,,,,,,,,,,,NIE,,,,,,,,,,,,,
,,,,,,,,,,,,,,,,,,,,,,NIE,,,,,,,,,,,,,
,,,,,,,,,,,,,,,,,,,,,,NIE,,,,,,,,,,,,,
,,,,,,,,,,,,,,,,,,,,,,NIE,,,,,,,,,,,,,
,,,,,,,,,,,,,,,,,,,,,,NIE,,,,,,,,,,,,,
,,,,,,,,,,,,,,,,,,,,,,NIE,,,,,,,,,,,,,
,,,,,,,,,,,,,,,,,,,,,,NIE,,,,,,,,,,,,,
,,,,,,,,,,,,,,,,,,,,,,NIE,,,,,,,,,,,,,
,,,,,,,,,,,,,,,,,,,,,,NIE,,,,,,,,,,,,,
,,,,,,,,,,,,,,,,,,,,,,NIE,,,,,,,,,,,,,
,,,,,,,,,,,,,,,,,,,,,,NIE,,,,,,,,,,,,,
,,,,,,,,,,,,,,,,,,,,,,NIE,,,,,,,,,,,,,
,,,,,,,,,,,,,,,,,,,,,,NIE,,,,,,,,,,,,,
,,,,,,,,,,,,,,,,,,,,,,NIE,,,,,,,,,,,,,
,,,,,,,,,,,,,,,,,,,,,,NIE,,,,,,,,,,,,,
,,,,,,,,,,,,,,,,,,,,,,NIE,,,,,,,,,,,,,
,,,,,,,,,,,,,,,,,,,,,,NIE,,,,,,,,,,,,,
,,,,,,,,,,,,,,,,,,,,,,NIE,,,,,,,,,,,,,
,,,,,,,,,,,,,,,,,,,,,,NIE,,,,,,,,,,,,,
,,,,,,,,,,,,,,,,,,,,,,NIE,,,,,,,,,,,,,
,,,,,,,,,,,,,,,,,,,,,,NIE,,,,,,,,,,,,,
,,,,,,,,,,,,,,,,,,,,,,NIE,,,,,,,,,,,,,
,,,,,,,,,,,,,,,,,,,,,,NIE,,,,,,,,,,,,,
,,,,,,,,,,,,,,,,,,,,,,NIE,,,,,,,,,,,,,
,,,,,,,,,,,,,,,,,,,,,,NIE,,,,,,,,,,,,,
,,,,,,,,,,,,,,,,,,,,,,NIE,,,,,,,,,,,,,
,,,,,,,,,,,,,,,,,,,,,,NIE,,,,,,,,,,,,,
,,,,,,,,,,,,,,,,,,,,,,NIE,,,,,,,,,,,,,
,,,,,,,,,,,,,,,,,,,,,,NIE,,,,,,,,,,,,,
,,,,,,,,,,,,,,,,,,,,,,NIE,,,,,,,,,,,,,
,,,,,,,,,,,,,,,,,,,,,,NIE,,,,,,,,,,,,,
,,,,,,,,,,,,,,,,,,,,,,NIE,,,,,,,,,,,,,
,,,,,,,,,,,,,,,,,,,,,,NIE,,,,,,,,,,,,,
,,,,,,,,,,,,,,,,,,,,,,NIE,,,,,,,,,,,,,
,,,,,,,,,,,,,,,,,,,,,,NIE,,,,,,,,,,,,,
,,,,,,,,,,,,,,,,,,,,,,NIE,,,,,,,,,,,,,
,,,,,,,,,,,,,,,,,,,,,,NIE,,,,,,,,,,,,,
,,,,,,,,,,,,,,,,,,,,,,NIE,,,,,,,,,,,,,
,,,,,,,,,,,,,,,,,,,,,,NIE,,,,,,,,,,,,,
,,,,,,,,,,,,,,,,,,,,,,NIE,,,,,,,,,,,,,
,,,,,,,,,,,,,,,,,,,,,,NIE,,,,,,,,,,,,,
,,,,,,,,,,,,,,,,,,,,,,NIE,,,,,,,,,,,,,
,,,,,,,,,,,,,,,,,,,,,,NIE,,,,,,,,,,,,,
,,,,,,,,,,,,,,,,,,,,,,NIE,,,,,,,,,,,,,
,,,,,,,,,,,,,,,,,,,,,,NIE,,,,,,,,,,,,,
,,,,,,,,,,,,,,,,,,,,,,NIE,,,,,,,,,,,,,
,,,,,,,,,,,,,,,,,,,,,,NIE,,,,,,,,,,,,,
,,,,,,,,,,,,,,,,,,,,,,NIE,,,,,,,,,,,,,
,,,,,,,,,,,,,,,,,,,,,,NIE,,,,,,,,,,,,,
,,,,,,,,,,,,,,,,,,,,,,NIE,,,,,,,,,,,,,
,,,,,,,,,,,,,,,,,,,,,,NIE,,,,,,,,,,,,,
,,,,,,,,,,,,,,,,,,,,,,NIE,,,,,,,,,,,,,
,,,,,,,,,,,,,,,,,,,,,,NIE,,,,,,,,,,,,,
,,,,,,,,,,,,,,,,,,,,,,NIE,,,,,,,,,,,,,
,,,,,,,,,,,,,,,,,,,,,,NIE,,,,,,,,,,,,,
,,,,,,,,,,,,,,,,,,,,,,NIE,,,,,,,,,,,,,
,,,,,,,,,,,,,,,,,,,,,,NIE,,,,,,,,,,,,,
,,,,,,,,,,,,,,,,,,,,,,NIE,,,,,,,,,,,,,
,,,,,,,,,,,,,,,,,,,,,,NIE,,,,,,,,,,,,,
,,,,,,,,,,,,,,,,,,,,,,NIE,,,,,,,,,,,,,
,,,,,,,,,,,,,,,,,,,,,,NIE,,,,,,,,,,,,,
,,,,,,,,,,,,,,,,,,,,,,NIE,,,,,,,,,,,,,
,,,,,,,,,,,,,,,,,,,,,,NIE,,,,,,,,,,,,,
,,,,,,,,,,,,,,,,,,,,,,NIE,,,,,,,,,,,,,
,,,,,,,,,,,,,,,,,,,,,,NIE,,,,,,,,,,,,,
,,,,,,,,,,,,,,,,,,,,,,NIE,,,,,,,,,,,,,
,,,,,,,,,,,,,,,,,,,,,,NIE,,,,,,,,,,,,,
,,,,,,,,,,,,,,,,,,,,,,NIE,,,,,,,,,,,,,
,,,,,,,,,,,,,,,,,,,,,,NIE,,,,,,,,,,,,,
,,,,,,,,,,,,,,,,,,,,,,NIE,,,,,,,,,,,,,
,,,,,,,,,,,,,,,,,,,,,,NIE,,,,,,,,,,,,,
,,,,,,,,,,,,,,,,,,,,,,NIE,,,,,,,,,,,,,
,,,,,,,,,,,,,,,,,,,,,,NIE,,,,,,,,,,,,,
,,,,,,,,,,,,,,,,,,,,,,NIE,,,,,,,,,,,,,
,,,,,,,,,,,,,,,,,,,,,,NIE,,,,,,,,,,,,,
,,,,,,,,,,,,,,,,,,,,,,NIE,,,,,,,,,,,,,
,,,,,,,,,,,,,,,,,,,,,,NIE,,,,,,,,,,,,,
,,,,,,,,,,,,,,,,,,,,,,NIE,,,,,,,,,,,,,
,,,,,,,,,,,,,,,,,,,,,,NIE,,,,,,,,,,,,,
,,,,,,,,,,,,,,,,,,,,,,NIE,,,,,,,,,,,,,
,,,,,,,,,,,,,,,,,,,,,,NIE,,,,,,,,,,,,,
,,,,,,,,,,,,,,,,,,,,,,NIE,,,,,,,,,,,,,
,,,,,,,,,,,,,,,,,,,,,,NIE,,,,,,,,,,,,,
,,,,,,,,,,,,,,,,,,,,,,NIE,,,,,,,,,,,,,
,,,,,,,,,,,,,,,,,,,,,,NIE,,,,,,,,,,,,,
,,,,,,,,,,,,,,,,,,,,,,NIE,,,,,,,,,,,,,
,,,,,,,,,,,,,,,,,,,,,,NIE,,,,,,,,,,,,,
,,,,,,,,,,,,,,,,,,,,,,NIE,,,,,,,,,,,,,
,,,,,,,,,,,,,,,,,,,,,,NIE,,,,,,,,,,,,,
,,,,,,,,,,,,,,,,,,,,,,NIE,,,,,,,,,,,,,
,,,,,,,,,,,,,,,,,,,,,,NIE,,,,,,,,,,,,,
,,,,,,,,,,,,,,,,,,,,,,NIE,,,,,,,,,,,,,
,,,,,,,,,,,,,,,,,,,,,,NIE,,,,,,,,,,,,,
,,,,,,,,,,,,,,,,,,,,,,NIE,,,,,,,,,,,,,
,,,,,,,,,,,,,,,,,,,,,,NIE,,,,,,,,,,,,,
,,,,,,,,,,,,,,,,,,,,,,NIE,,,,,,,,,,,,,
,,,,,,,,,,,,,,,,,,,,,,NIE,,,,,,,,,,,,,
,,,,,,,,,,,,,,,,,,,,,,NIE,,,,,,,,,,,,,
,,,,,,,,,,,,,,,,,,,,,,NIE,,,,,,,,,,,,,
,,,,,,,,,,,,,,,,,,,,,,NIE,,,,,,,,,,,,,
,,,,,,,,,,,,,,,,,,,,,,NIE,,,,,,,,,,,,,
,,,,,,,,,,,,,,,,,,,,,,NIE,,,,,,,,,,,,,
,,,,,,,,,,,,,,,,,,,,,,NIE,,,,,,,,,,,,,
,,,,,,,,,,,,,,,,,,,,,,NIE,,,,,,,,,,,,,
,,,,,,,,,,,,,,,,,,,,,,NIE,,,,,,,,,,,,,
,,,,,,,,,,,,,,,,,,,,,,NIE,,,,,,,,,,,,,
,,,,,,,,,,,,,,,,,,,,,,NIE,,,,,,,,,,,,,
,,,,,,,,,,,,,,,,,,,,,,NIE,,,,,,,,,,,,,
,,,,,,,,,,,,,,,,,,,,,,NIE,,,,,,,,,,,,,
,,,,,,,,,,,,,,,,,,,,,,NIE,,,,,,,,,,,,,
,,,,,,,,,,,,,,,,,,,,,,NIE,,,,,,,,,,,,,
,,,,,,,,,,,,,,,,,,,,,,NIE,,,,,,,,,,,,,
,,,,,,,,,,,,,,,,,,,,,,NIE,,,,,,,,,,,,,
,,,,,,,,,,,,,,,,,,,,,,NIE,,,,,,,,,,,,,
,,,,,,,,,,,,,,,,,,,,,,NIE,,,,,,,,,,,,,
,,,,,,,,,,,,,,,,,,,,,,NIE,,,,,,,,,,,,,
,,,,,,,,,,,,,,,,,,,,,,NIE,,,,,,,,,,,,,
,,,,,,,,,,,,,,,,,,,,,,NIE,,,,,,,,,,,,,
,,,,,,,,,,,,,,,,,,,,,,NIE,,,,,,,,,,,,,
,,,,,,,,,,,,,,,,,,,,,,NIE,,,,,,,,,,,,,
,,,,,,,,,,,,,,,,,,,,,,NIE,,,,,,,,,,,,,
,,,,,,,,,,,,,,,,,,,,,,NIE,,,,,,,,,,,,,
,,,,,,,,,,,,,,,,,,,,,,NIE,,,,,,,,,,,,,
,,,,,,,,,,,,,,,,,,,,,,NIE,,,,,,,,,,,,,
,,,,,,,,,,,,,,,,,,,,,,NIE,,,,,,,,,,,,,
,,,,,,,,,,,,,,,,,,,,,,NIE,,,,,,,,,,,,,
,,,,,,,,,,,,,,,,,,,,,,NIE,,,,,,,,,,,,,
,,,,,,,,,,,,,,,,,,,,,,NIE,,,,,,,,,,,,,
,,,,,,,,,,,,,,,,,,,,,,NIE,,,,,,,,,,,,,
,,,,,,,,,,,,,,,,,,,,,,NIE,,,,,,,,,,,,,
,,,,,,,,,,,,,,,,,,,,,,NIE,,,,,,,,,,,,,
,,,,,,,,,,,,,,,,,,,,,,NIE,,,,,,,,,,,,,
,,,,,,,,,,,,,,,,,,,,,,NIE,,,,,,,,,,,,,
,,,,,,,,,,,,,,,,,,,,,,NIE,,,,,,,,,,,,,
,,,,,,,,,,,,,,,,,,,,,,NIE,,,,,,,,,,,,,
,,,,,,,,,,,,,,,,,,,,,,NIE,,,,,,,,,,,,,
,,,,,,,,,,,,,,,,,,,,,,NIE,,,,,,,,,,,,,
,,,,,,,,,,,,,,,,,,,,,,NIE,,,,,,,,,,,,,
,,,,,,,,,,,,,,,,,,,,,,NIE,,,,,,,,,,,,,
,,,,,,,,,,,,,,,,,,,,,,NIE,,,,,,,,,,,,,
,,,,,,,,,,,,,,,,,,,,,,NIE,,,,,,,,,,,,,
,,,,,,,,,,,,,,,,,,,,,,NIE,,,,,,,,,,,,,
,,,,,,,,,,,,,,,,,,,,,,NIE,,,,,,,,,,,,,
,,,,,,,,,,,,,,,,,,,,,,NIE,,,,,,,,,,,,,
,,,,,,,,,,,,,,,,,,,,,,NIE,,,,,,,,,,,,,
,,,,,,,,,,,,,,,,,,,,,,NIE,,,,,,,,,,,,,
,,,,,,,,,,,,,,,,,,,,,,NIE,,,,,,,,,,,,,
,,,,,,,,,,,,,,,,,,,,,,NIE,,,,,,,,,,,,,
,,,,,,,,,,,,,,,,,,,,,,NIE,,,,,,,,,,,,,
,,,,,,,,,,,,,,,,,,,,,,NIE,,,,,,,,,,,,,
,,,,,,,,,,,,,,,,,,,,,,NIE,,,,,,,,,,,,,
,,,,,,,,,,,,,,,,,,,,,,NIE,,,,,,,,,,,,,
,,,,,,,,,,,,,,,,,,,,,,NIE,,,,,,,,,,,,,
,,,,,,,,,,,,,,,,,,,,,,NIE,,,,,,,,,,,,,
,,,,,,,,,,,,,,,,,,,,,,NIE,,,,,,,,,,,,,
,,,,,,,,,,,,,,,,,,,,,,NIE,,,,,,,,,,,,,
,,,,,,,,,,,,,,,,,,,,,,NIE,,,,,,,,,,,,,
,,,,,,,,,,,,,,,,,,,,,,NIE,,,,,,,,,,,,,
,,,,,,,,,,,,,,,,,,,,,,NIE,,,,,,,,,,,,,
,,,,,,,,,,,,,,,,,,,,,,NIE,,,,,,,,,,,,,
,,,,,,,,,,,,,,,,,,,,,,NIE,,,,,,,,,,,,,
,,,,,,,,,,,,,,,,,,,,,,NIE,,,,,,,,,,,,,
,,,,,,,,,,,,,,,,,,,,,,NIE,,,,,,,,,,,,,
,,,,,,,,,,,,,,,,,,,,,,NIE,,,,,,,,,,,,,
,,,,,,,,,,,,,,,,,,,,,,NIE,,,,,,,,,,,,,
,,,,,,,,,,,,,,,,,,,,,,NIE,,,,,,,,,,,,,
,,,,,,,,,,,,,,,,,,,,,,NIE,,,,,,,,,,,,,
,,,,,,,,,,,,,,,,,,,,,,NIE,,,,,,,,,,,,,
,,,,,,,,,,,,,,,,,,,,,,NIE,,,,,,,,,,,,,
,,,,,,,,,,,,,,,,,,,,,,NIE,,,,,,,,,,,,,
,,,,,,,,,,,,,,,,,,,,,,NIE,,,,,,,,,,,,,
,,,,,,,,,,,,,,,,,,,,,,NIE,,,,,,,,,,,,,
,,,,,,,,,,,,,,,,,,,,,,NIE,,,,,,,,,,,,,
,,,,,,,,,,,,,,,,,,,,,,NIE,,,,,,,,,,,,,
,,,,,,,,,,,,,,,,,,,,,,NIE,,,,,,,,,,,,,
,,,,,,,,,,,,,,,,,,,,,,NIE,,,,,,,,,,,,,
,,,,,,,,,,,,,,,,,,,,,,NIE,,,,,,,,,,,,,
,,,,,,,,,,,,,,,,,,,,,,NIE,,,,,,,,,,,,,
,,,,,,,,,,,,,,,,,,,,,,NIE,,,,,,,,,,,,,
,,,,,,,,,,,,,,,,,,,,,,NIE,,,,,,,,,,,,,
,,,,,,,,,,,,,,,,,,,,,,NIE,,,,,,,,,,,,,
,,,,,,,,,,,,,,,,,,,,,,NIE,,,,,,,,,,,,,
,,,,,,,,,,,,,,,,,,,,,,NIE,,,,,,,,,,,,,
,,,,,,,,,,,,,,,,,,,,,,NIE,,,,,,,,,,,,,
,,,,,,,,,,,,,,,,,,,,,,NIE,,,,,,,,,,,,,
,,,,,,,,,,,,,,,,,,,,,,NIE,,,,,,,,,,,,,
,,,,,,,,,,,,,,,,,,,,,,NIE,,,,,,,,,,,,,
,,,,,,,,,,,,,,,,,,,,,,NIE,,,,,,,,,,,,,
,,,,,,,,,,,,,,,,,,,,,,NIE,,,,,,,,,,,,,
,,,,,,,,,,,,,,,,,,,,,,NIE,,,,,,,,,,,,,
,,,,,,,,,,,,,,,,,,,,,,NIE,,,,,,,,,,,,,
,,,,,,,,,,,,,,,,,,,,,,NIE,,,,,,,,,,,,,
,,,,,,,,,,,,,,,,,,,,,,NIE,,,,,,,,,,,,,
,,,,,,,,,,,,,,,,,,,,,,NIE,,,,,,,,,,,,,
,,,,,,,,,,,,,,,,,,,,,,NIE,,,,,,,,,,,,,
,,,,,,,,,,,,,,,,,,,,,,NIE,,,,,,,,,,,,,
,,,,,,,,,,,,,,,,,,,,,,NIE,,,,,,,,,,,,,
,,,,,,,,,,,,,,,,,,,,,,NIE,,,,,,,,,,,,,
,,,,,,,,,,,,,,,,,,,,,,NIE,,,,,,,,,,,,,
,,,,,,,,,,,,,,,,,,,,,,NIE,,,,,,,,,,,,,
,,,,,,,,,,,,,,,,,,,,,,NIE,,,,,,,,,,,,,
,,,,,,,,,,,,,,,,,,,,,,NIE,,,,,,,,,,,,,
,,,,,,,,,,,,,,,,,,,,,,NIE,,,,,,,,,,,,,
,,,,,,,,,,,,,,,,,,,,,,NIE,,,,,,,,,,,,,
,,,,,,,,,,,,,,,,,,,,,,NIE,,,,,,,,,,,,,
,,,,,,,,,,,,,,,,,,,,,,NIE,,,,,,,,,,,,,
,,,,,,,,,,,,,,,,,,,,,,NIE,,,,,,,,,,,,,
,,,,,,,,,,,,,,,,,,,,,,NIE,,,,,,,,,,,,,
,,,,,,,,,,,,,,,,,,,,,,NIE,,,,,,,,,,,,,
,,,,,,,,,,,,,,,,,,,,,,NIE,,,,,,,,,,,,,
,,,,,,,,,,,,,,,,,,,,,,NIE,,,,,,,,,,,,,
,,,,,,,,,,,,,,,,,,,,,,NIE,,,,,,,,,,,,,
,,,,,,,,,,,,,,,,,,,,,,NIE,,,,,,,,,,,,,
,,,,,,,,,,,,,,,,,,,,,,NIE,,,,,,,,,,,,,
,,,,,,,,,,,,,,,,,,,,,,NIE,,,,,,,,,,,,,
,,,,,,,,,,,,,,,,,,,,,,NIE,,,,,,,,,,,,,
,,,,,,,,,,,,,,,,,,,,,,NIE,,,,,,,,,,,,,
,,,,,,,,,,,,,,,,,,,,,,NIE,,,,,,,,,,,,,
,,,,,,,,,,,,,,,,,,,,,,NIE,,,,,,,,,,,,,
,,,,,,,,,,,,,,,,,,,,,,NIE,,,,,,,,,,,,,
,,,,,,,,,,,,,,,,,,,,,,NIE,,,,,,,,,,,,,
,,,,,,,,,,,,,,,,,,,,,,NIE,,,,,,,,,,,,,
,,,,,,,,,,,,,,,,,,,,,,NIE,,,,,,,,,,,,,
,,,,,,,,,,,,,,,,,,,,,,NIE,,,,,,,,,,,,,
,,,,,,,,,,,,,,,,,,,,,,NIE,,,,,,,,,,,,,
,,,,,,,,,,,,,,,,,,,,,,NIE,,,,,,,,,,,,,
,,,,,,,,,,,,,,,,,,,,,,NIE,,,,,,,,,,,,,
,,,,,,,,,,,,,,,,,,,,,,NIE,,,,,,,,,,,,,
,,,,,,,,,,,,,,,,,,,,,,NIE,,,,,,,,,,,,,
,,,,,,,,,,,,,,,,,,,,,,NIE,,,,,,,,,,,,,
,,,,,,,,,,,,,,,,,,,,,,NIE,,,,,,,,,,,,,
,,,,,,,,,,,,,,,,,,,,,,NIE,,,,,,,,,,,,,
,,,,,,,,,,,,,,,,,,,,,,NIE,,,,,,,,,,,,,
,,,,,,,,,,,,,,,,,,,,,,NIE,,,,,,,,,,,,,
,,,,,,,,,,,,,,,,,,,,,,NIE,,,,,,,,,,,,,
,,,,,,,,,,,,,,,,,,,,,,NIE,,,,,,,,,,,,,
,,,,,,,,,,,,,,,,,,,,,,NIE,,,,,,,,,,,,,
,,,,,,,,,,,,,,,,,,,,,,NIE,,,,,,,,,,,,,
,,,,,,,,,,,,,,,,,,,,,,NIE,,,,,,,,,,,,,
,,,,,,,,,,,,,,,,,,,,,,NIE,,,,,,,,,,,,,
,,,,,,,,,,,,,,,,,,,,,,NIE,,,,,,,,,,,,,
,,,,,,,,,,,,,,,,,,,,,,NIE,,,,,,,,,,,,,
,,,,,,,,,,,,,,,,,,,,,,NIE,,,,,,,,,,,,,
,,,,,,,,,,,,,,,,,,,,,,NIE,,,,,,,,,,,,,
,,,,,,,,,,,,,,,,,,,,,,NIE,,,,,,,,,,,,,
,,,,,,,,,,,,,,,,,,,,,,NIE,,,,,,,,,,,,,
,,,,,,,,,,,,,,,,,,,,,,NIE,,,,,,,,,,,,,
,,,,,,,,,,,,,,,,,,,,,,NIE,,,,,,,,,,,,,
,,,,,,,,,,,,,,,,,,,,,,NIE,,,,,,,,,,,,,
,,,,,,,,,,,,,,,,,,,,,,NIE,,,,,,,,,,,,,
,,,,,,,,,,,,,,,,,,,,,,NIE,,,,,,,,,,,,,
,,,,,,,,,,,,,,,,,,,,,,NIE,,,,,,,,,,,,,
,,,,,,,,,,,,,,,,,,,,,,NIE,,,,,,,,,,,,,
,,,,,,,,,,,,,,,,,,,,,,NIE,,,,,,,,,,,,,
,,,,,,,,,,,,,,,,,,,,,,NIE,,,,,,,,,,,,,
,,,,,,,,,,,,,,,,,,,,,,NIE,,,,,,,,,,,,,
,,,,,,,,,,,,,,,,,,,,,,NIE,,,,,,,,,,,,,
,,,,,,,,,,,,,,,,,,,,,,NIE,,,,,,,,,,,,,
,,,,,,,,,,,,,,,,,,,,,,NIE,,,,,,,,,,,,,
,,,,,,,,,,,,,,,,,,,,,,NIE,,,,,,,,,,,,,
,,,,,,,,,,,,,,,,,,,,,,NIE,,,,,,,,,,,,,
,,,,,,,,,,,,,,,,,,,,,,NIE,,,,,,,,,,,,,
,,,,,,,,,,,,,,,,,,,,,,NIE,,,,,,,,,,,,,
,,,,,,,,,,,,,,,,,,,,,,NIE,,,,,,,,,,,,,
,,,,,,,,,,,,,,,,,,,,,,NIE,,,,,,,,,,,,,
,,,,,,,,,,,,,,,,,,,,,,NIE,,,,,,,,,,,,,
,,,,,,,,,,,,,,,,,,,,,,NIE,,,,,,,,,,,,,
,,,,,,,,,,,,,,,,,,,,,,NIE,,,,,,,,,,,,,
,,,,,,,,,,,,,,,,,,,,,,NIE,,,,,,,,,,,,,
,,,,,,,,,,,,,,,,,,,,,,NIE,,,,,,,,,,,,,
,,,,,,,,,,,,,,,,,,,,,,NIE,,,,,,,,,,,,,
,,,,,,,,,,,,,,,,,,,,,,NIE,,,,,,,,,,,,,
,,,,,,,,,,,,,,,,,,,,,,NIE,,,,,,,,,,,,,
,,,,,,,,,,,,,,,,,,,,,,NIE,,,,,,,,,,,,,
,,,,,,,,,,,,,,,,,,,,,,NIE,,,,,,,,,,,,,
,,,,,,,,,,,,,,,,,,,,,,NIE,,,,,,,,,,,,,
,,,,,,,,,,,,,,,,,,,,,,NIE,,,,,,,,,,,,,
,,,,,,,,,,,,,,,,,,,,,,NIE,,,,,,,,,,,,,
,,,,,,,,,,,,,,,,,,,,,,NIE,,,,,,,,,,,,,
,,,,,,,,,,,,,,,,,,,,,,NIE,,,,,,,,,,,,,
,,,,,,,,,,,,,,,,,,,,,,NIE,,,,,,,,,,,,,
,,,,,,,,,,,,,,,,,,,,,,NIE,,,,,,,,,,,,,
,,,,,,,,,,,,,,,,,,,,,,NIE,,,,,,,,,,,,,
,,,,,,,,,,,,,,,,,,,,,,NIE,,,,,,,,,,,,,
,,,,,,,,,,,,,,,,,,,,,,NIE,,,,,,,,,,,,,
,,,,,,,,,,,,,,,,,,,,,,NIE,,,,,,,,,,,,,
,,,,,,,,,,,,,,,,,,,,,,NIE,,,,,,,,,,,,,
,,,,,,,,,,,,,,,,,,,,,,NIE,,,,,,,,,,,,,
,,,,,,,,,,,,,,,,,,,,,,NIE,,,,,,,,,,,,,
,,,,,,,,,,,,,,,,,,,,,,NIE,,,,,,,,,,,,,
,,,,,,,,,,,,,,,,,,,,,,NIE,,,,,,,,,,,,,
,,,,,,,,,,,,,,,,,,,,,,NIE,,,,,,,,,,,,,
,,,,,,,,,,,,,,,,,,,,,,NIE,,,,,,,,,,,,,
,,,,,,,,,,,,,,,,,,,,,,NIE,,,,,,,,,,,,,
,,,,,,,,,,,,,,,,,,,,,,NIE,,,,,,,,,,,,,
,,,,,,,,,,,,,,,,,,,,,,NIE,,,,,,,,,,,,,
,,,,,,,,,,,,,,,,,,,,,,NIE,,,,,,,,,,,,,
,,,,,,,,,,,,,,,,,,,,,,NIE,,,,,,,,,,,,,
,,,,,,,,,,,,,,,,,,,,,,NIE,,,,,,,,,,,,,
,,,,,,,,,,,,,,,,,,,,,,NIE,,,,,,,,,,,,,
,,,,,,,,,,,,,,,,,,,,,,NIE,,,,,,,,,,,,,
,,,,,,,,,,,,,,,,,,,,,,NIE,,,,,,,,,,,,,
,,,,,,,,,,,,,,,,,,,,,,NIE,,,,,,,,,,,,,
,,,,,,,,,,,,,,,,,,,,,,NIE,,,,,,,,,,,,,
,,,,,,,,,,,,,,,,,,,,,,NIE,,,,,,,,,,,,,
,,,,,,,,,,,,,,,,,,,,,,NIE,,,,,,,,,,,,,
,,,,,,,,,,,,,,,,,,,,,,NIE,,,,,,,,,,,,,
,,,,,,,,,,,,,,,,,,,,,,NIE,,,,,,,,,,,,,
,,,,,,,,,,,,,,,,,,,,,,NIE,,,,,,,,,,,,,
,,,,,,,,,,,,,,,,,,,,,,NIE,,,,,,,,,,,,,
,,,,,,,,,,,,,,,,,,,,,,NIE,,,,,,,,,,,,,
,,,,,,,,,,,,,,,,,,,,,,NIE,,,,,,,,,,,,,
,,,,,,,,,,,,,,,,,,,,,,NIE,,,,,,,,,,,,,
,,,,,,,,,,,,,,,,,,,,,,NIE,,,,,,,,,,,,,
,,,,,,,,,,,,,,,,,,,,,,NIE,,,,,,,,,,,,,
,,,,,,,,,,,,,,,,,,,,,,NIE,,,,,,,,,,,,,
,,,,,,,,,,,,,,,,,,,,,,NIE,,,,,,,,,,,,,
,,,,,,,,,,,,,,,,,,,,,,NIE,,,,,,,,,,,,,
,,,,,,,,,,,,,,,,,,,,,,NIE,,,,,,,,,,,,,
,,,,,,,,,,,,,,,,,,,,,,NIE,,,,,,,,,,,,,
,,,,,,,,,,,,,,,,,,,,,,NIE,,,,,,,,,,,,,
,,,,,,,,,,,,,,,,,,,,,,NIE,,,,,,,,,,,,,
,,,,,,,,,,,,,,,,,,,,,,NIE,,,,,,,,,,,,,
,,,,,,,,,,,,,,,,,,,,,,NIE,,,,,,,,,,,,,
,,,,,,,,,,,,,,,,,,,,,,NIE,,,,,,,,,,,,,
,,,,,,,,,,,,,,,,,,,,,,NIE,,,,,,,,,,,,,
,,,,,,,,,,,,,,,,,,,,,,NIE,,,,,,,,,,,,,
,,,,,,,,,,,,,,,,,,,,,,NIE,,,,,,,,,,,,,
,,,,,,,,,,,,,,,,,,,,,,NIE,,,,,,,,,,,,,
,,,,,,,,,,,,,,,,,,,,,,NIE,,,,,,,,,,,,,
,,,,,,,,,,,,,,,,,,,,,,NIE,,,,,,,,,,,,,
,,,,,,,,,,,,,,,,,,,,,,NIE,,,,,,,,,,,,,
,,,,,,,,,,,,,,,,,,,,,,NIE,,,,,,,,,,,,,
,,,,,,,,,,,,,,,,,,,,,,NIE,,,,,,,,,,,,,
,,,,,,,,,,,,,,,,,,,,,,NIE,,,,,,,,,,,,,
,,,,,,,,,,,,,,,,,,,,,,NIE,,,,,,,,,,,,,
,,,,,,,,,,,,,,,,,,,,,,NIE,,,,,,,,,,,,,
,,,,,,,,,,,,,,,,,,,,,,NIE,,,,,,,,,,,,,
,,,,,,,,,,,,,,,,,,,,,,NIE,,,,,,,,,,,,,
,,,,,,,,,,,,,,,,,,,,,,NIE,,,,,,,,,,,,,
,,,,,,,,,,,,,,,,,,,,,,NIE,,,,,,,,,,,,,
,,,,,,,,,,,,,,,,,,,,,,NIE,,,,,,,,,,,,,
,,,,,,,,,,,,,,,,,,,,,,NIE,,,,,,,,,,,,,
,,,,,,,,,,,,,,,,,,,,,,NIE,,,,,,,,,,,,,
,,,,,,,,,,,,,,,,,,,,,,NIE,,,,,,,,,,,,,
,,,,,,,,,,,,,,,,,,,,,,NIE,,,,,,,,,,,,,
,,,,,,,,,,,,,,,,,,,,,,NIE,,,,,,,,,,,,,
,,,,,,,,,,,,,,,,,,,,,,NIE,,,,,,,,,,,,,
,,,,,,,,,,,,,,,,,,,,,,NIE,,,,,,,,,,,,,
,,,,,,,,,,,,,,,,,,,,,,NIE,,,,,,,,,,,,,
,,,,,,,,,,,,,,,,,,,,,,NIE,,,,,,,,,,,,,
,,,,,,,,,,,,,,,,,,,,,,NIE,,,,,,,,,,,,,
,,,,,,,,,,,,,,,,,,,,,,NIE,,,,,,,,,,,,,
,,,,,,,,,,,,,,,,,,,,,,NIE,,,,,,,,,,,,,
,,,,,,,,,,,,,,,,,,,,,,NIE,,,,,,,,,,,,,
,,,,,,,,,,,,,,,,,,,,,,NIE,,,,,,,,,,,,,
,,,,,,,,,,,,,,,,,,,,,,NIE,,,,,,,,,,,,,
,,,,,,,,,,,,,,,,,,,,,,NIE,,,,,,,,,,,,,
,,,,,,,,,,,,,,,,,,,,,,NIE,,,,,,,,,,,,,
,,,,,,,,,,,,,,,,,,,,,,NIE,,,,,,,,,,,,,
,,,,,,,,,,,,,,,,,,,,,,NIE,,,,,,,,,,,,,
,,,,,,,,,,,,,,,,,,,,,,NIE,,,,,,,,,,,,,
,,,,,,,,,,,,,,,,,,,,,,NIE,,,,,,,,,,,,,
,,,,,,,,,,,,,,,,,,,,,,NIE,,,,,,,,,,,,,
,,,,,,,,,,,,,,,,,,,,,,NIE,,,,,,,,,,,,,
,,,,,,,,,,,,,,,,,,,,,,NIE,,,,,,,,,,,,,
,,,,,,,,,,,,,,,,,,,,,,NIE,,,,,,,,,,,,,
,,,,,,,,,,,,,,,,,,,,,,NIE,,,,,,,,,,,,,
,,,,,,,,,,,,,,,,,,,,,,NIE,,,,,,,,,,,,,
,,,,,,,,,,,,,,,,,,,,,,NIE,,,,,,,,,,,,,
,,,,,,,,,,,,,,,,,,,,,,NIE,,,,,,,,,,,,,
,,,,,,,,,,,,,,,,,,,,,,NIE,,,,,,,,,,,,,
,,,,,,,,,,,,,,,,,,,,,,NIE,,,,,,,,,,,,,
,,,,,,,,,,,,,,,,,,,,,,NIE,,,,,,,,,,,,,
,,,,,,,,,,,,,,,,,,,,,,NIE,,,,,,,,,,,,,
,,,,,,,,,,,,,,,,,,,,,,NIE,,,,,,,,,,,,,
,,,,,,,,,,,,,,,,,,,,,,NIE,,,,,,,,,,,,,
,,,,,,,,,,,,,,,,,,,,,,NIE,,,,,,,,,,,,,
,,,,,,,,,,,,,,,,,,,,,,NIE,,,,,,,,,,,,,
,,,,,,,,,,,,,,,,,,,,,,NIE,,,,,,,,,,,,,
,,,,,,,,,,,,,,,,,,,,,,NIE,,,,,,,,,,,,,
,,,,,,,,,,,,,,,,,,,,,,NIE,,,,,,,,,,,,,
,,,,,,,,,,,,,,,,,,,,,,NIE,,,,,,,,,,,,,
,,,,,,,,,,,,,,,,,,,,,,NIE,,,,,,,,,,,,,
,,,,,,,,,,,,,,,,,,,,,,NIE,,,,,,,,,,,,,
,,,,,,,,,,,,,,,,,,,,,,NIE,,,,,,,,,,,,,
,,,,,,,,,,,,,,,,,,,,,,NIE,,,,,,,,,,,,,
,,,,,,,,,,,,,,,,,,,,,,NIE,,,,,,,,,,,,,
,,,,,,,,,,,,,,,,,,,,,,NIE,,,,,,,,,,,,,
,,,,,,,,,,,,,,,,,,,,,,NIE,,,,,,,,,,,,,
,,,,,,,,,,,,,,,,,,,,,,NIE,,,,,,,,,,,,,
,,,,,,,,,,,,,,,,,,,,,,NIE,,,,,,,,,,,,,
,,,,,,,,,,,,,,,,,,,,,,NIE,,,,,,,,,,,,,
,,,,,,,,,,,,,,,,,,,,,,NIE,,,,,,,,,,,,,
,,,,,,,,,,,,,,,,,,,,,,NIE,,,,,,,,,,,,,
,,,,,,,,,,,,,,,,,,,,,,NIE,,,,,,,,,,,,,
,,,,,,,,,,,,,,,,,,,,,,NIE,,,,,,,,,,,,,
,,,,,,,,,,,,,,,,,,,,,,NIE,,,,,,,,,,,,,
,,,,,,,,,,,,,,,,,,,,,,NIE,,,,,,,,,,,,,
,,,,,,,,,,,,,,,,,,,,,,NIE,,,,,,,,,,,,,
,,,,,,,,,,,,,,,,,,,,,,NIE,,,,,,,,,,,,,
,,,,,,,,,,,,,,,,,,,,,,NIE,,,,,,,,,,,,,
,,,,,,,,,,,,,,,,,,,,,,NIE,,,,,,,,,,,,,
,,,,,,,,,,,,,,,,,,,,,,NIE,,,,,,,,,,,,,
,,,,,,,,,,,,,,,,,,,,,,NIE,,,,,,,,,,,,,
,,,,,,,,,,,,,,,,,,,,,,NIE,,,,,,,,,,,,,
,,,,,,,,,,,,,,,,,,,,,,NIE,,,,,,,,,,,,,
,,,,,,,,,,,,,,,,,,,,,,NIE,,,,,,,,,,,,,
,,,,,,,,,,,,,,,,,,,,,,NIE,,,,,,,,,,,,,
,,,,,,,,,,,,,,,,,,,,,,NIE,,,,,,,,,,,,,
,,,,,,,,,,,,,,,,,,,,,,NIE,,,,,,,,,,,,,
,,,,,,,,,,,,,,,,,,,,,,NIE,,,,,,,,,,,,,
,,,,,,,,,,,,,,,,,,,,,,NIE,,,,,,,,,,,,,
,,,,,,,,,,,,,,,,,,,,,,NIE,,,,,,,,,,,,,
,,,,,,,,,,,,,,,,,,,,,,NIE,,,,,,,,,,,,,
,,,,,,,,,,,,,,,,,,,,,,NIE,,,,,,,,,,,,,
,,,,,,,,,,,,,,,,,,,,,,NIE,,,,,,,,,,,,,
,,,,,,,,,,,,,,,,,,,,,,NIE,,,,,,,,,,,,,
,,,,,,,,,,,,,,,,,,,,,,NIE,,,,,,,,,,,,,
,,,,,,,,,,,,,,,,,,,,,,NIE,,,,,,,,,,,,,
,,,,,,,,,,,,,,,,,,,,,,NIE,,,,,,,,,,,,,
,,,,,,,,,,,,,,,,,,,,,,NIE,,,,,,,,,,,,,
,,,,,,,,,,,,,,,,,,,,,,NIE,,,,,,,,,,,,,
,,,,,,,,,,,,,,,,,,,,,,NIE,,,,,,,,,,,,,
,,,,,,,,,,,,,,,,,,,,,,NIE,,,,,,,,,,,,,
,,,,,,,,,,,,,,,,,,,,,,NIE,,,,,,,,,,,,,
,,,,,,,,,,,,,,,,,,,,,,NIE,,,,,,,,,,,,,
,,,,,,,,,,,,,,,,,,,,,,NIE,,,,,,,,,,,,,
,,,,,,,,,,,,,,,,,,,,,,NIE,,,,,,,,,,,,,
,,,,,,,,,,,,,,,,,,,,,,NIE,,,,,,,,,,,,,
,,,,,,,,,,,,,,,,,,,,,,NIE,,,,,,,,,,,,,
,,,,,,,,,,,,,,,,,,,,,,NIE,,,,,,,,,,,,,
,,,,,,,,,,,,,,,,,,,,,,NIE,,,,,,,,,,,,,
,,,,,,,,,,,,,,,,,,,,,,NIE,,,,,,,,,,,,,
,,,,,,,,,,,,,,,,,,,,,,NIE,,,,,,,,,,,,,
,,,,,,,,,,,,,,,,,,,,,,NIE,,,,,,,,,,,,,
,,,,,,,,,,,,,,,,,,,,,,NIE,,,,,,,,,,,,,
,,,,,,,,,,,,,,,,,,,,,,NIE,,,,,,,,,,,,,
,,,,,,,,,,,,,,,,,,,,,,NIE,,,,,,,,,,,,,
,,,,,,,,,,,,,,,,,,,,,,NIE,,,,,,,,,,,,,
,,,,,,,,,,,,,,,,,,,,,,NIE,,,,,,,,,,,,,
,,,,,,,,,,,,,,,,,,,,,,NIE,,,,,,,,,,,,,
,,,,,,,,,,,,,,,,,,,,,,NIE,,,,,,,,,,,,,
,,,,,,,,,,,,,,,,,,,,,,NIE,,,,,,,,,,,,,
,,,,,,,,,,,,,,,,,,,,,,NIE,,,,,,,,,,,,,
,,,,,,,,,,,,,,,,,,,,,,NIE,,,,,,,,,,,,,
,,,,,,,,,,,,,,,,,,,,,,NIE,,,,,,,,,,,,,
,,,,,,,,,,,,,,,,,,,,,,NIE,,,,,,,,,,,,,
,,,,,,,,,,,,,,,,,,,,,,NIE,,,,,,,,,,,,,
,,,,,,,,,,,,,,,,,,,,,,NIE,,,,,,,,,,,,,
,,,,,,,,,,,,,,,,,,,,,,NIE,,,,,,,,,,,,,
,,,,,,,,,,,,,,,,,,,,,,NIE,,,,,,,,,,,,,
,,,,,,,,,,,,,,,,,,,,,,NIE,,,,,,,,,,,,,
,,,,,,,,,,,,,,,,,,,,,,NIE,,,,,,,,,,,,,
,,,,,,,,,,,,,,,,,,,,,,NIE,,,,,,,,,,,,,
,,,,,,,,,,,,,,,,,,,,,,NIE,,,,,,,,,,,,,
,,,,,,,,,,,,,,,,,,,,,,NIE,,,,,,,,,,,,,
,,,,,,,,,,,,,,,,,,,,,,NIE,,,,,,,,,,,,,
,,,,,,,,,,,,,,,,,,,,,,NIE,,,,,,,,,,,,,
,,,,,,,,,,,,,,,,,,,,,,NIE,,,,,,,,,,,,,
,,,,,,,,,,,,,,,,,,,,,,NIE,,,,,,,,,,,,,
,,,,,,,,,,,,,,,,,,,,,,NIE,,,,,,,,,,,,,
,,,,,,,,,,,,,,,,,,,,,,NIE,,,,,,,,,,,,,
,,,,,,,,,,,,,,,,,,,,,,NIE,,,,,,,,,,,,,
,,,,,,,,,,,,,,,,,,,,,,NIE,,,,,,,,,,,,,
,,,,,,,,,,,,,,,,,,,,,,NIE,,,,,,,,,,,,,
,,,,,,,,,,,,,,,,,,,,,,NIE,,,,,,,,,,,,,
,,,,,,,,,,,,,,,,,,,,,,NIE,,,,,,,,,,,,,
,,,,,,,,,,,,,,,,,,,,,,NIE,,,,,,,,,,,,,
,,,,,,,,,,,,,,,,,,,,,,NIE,,,,,,,,,,,,,
,,,,,,,,,,,,,,,,,,,,,,NIE,,,,,,,,,,,,,
,,,,,,,,,,,,,,,,,,,,,,NIE,,,,,,,,,,,,,
,,,,,,,,,,,,,,,,,,,,,,NIE,,,,,,,,,,,,,
,,,,,,,,,,,,,,,,,,,,,,NIE,,,,,,,,,,,,,
,,,,,,,,,,,,,,,,,,,,,,NIE,,,,,,,,,,,,,
,,,,,,,,,,,,,,,,,,,,,,NIE,,,,,,,,,,,,,
,,,,,,,,,,,,,,,,,,,,,,NIE,,,,,,,,,,,,,
,,,,,,,,,,,,,,,,,,,,,,NIE,,,,,,,,,,,,,
,,,,,,,,,,,,,,,,,,,,,,NIE,,,,,,,,,,,,,
,,,,,,,,,,,,,,,,,,,,,,NIE,,,,,,,,,,,,,
,,,,,,,,,,,,,,,,,,,,,,NIE,,,,,,,,,,,,,
,,,,,,,,,,,,,,,,,,,,,,NIE,,,,,,,,,,,,,
,,,,,,,,,,,,,,,,,,,,,,NIE,,,,,,,,,,,,,
,,,,,,,,,,,,,,,,,,,,,,NIE,,,,,,,,,,,,,
,,,,,,,,,,,,,,,,,,,,,,NIE,,,,,,,,,,,,,
,,,,,,,,,,,,,,,,,,,,,,NIE,,,,,,,,,,,,,
,,,,,,,,,,,,,,,,,,,,,,NIE,,,,,,,,,,,,,
,,,,,,,,,,,,,,,,,,,,,,NIE,,,,,,,,,,,,,
,,,,,,,,,,,,,,,,,,,,,,NIE,,,,,,,,,,,,,
,,,,,,,,,,,,,,,,,,,,,,NIE,,,,,,,,,,,,,
,,,,,,,,,,,,,,,,,,,,,,NIE,,,,,,,,,,,,,
,,,,,,,,,,,,,,,,,,,,,,NIE,,,,,,,,,,,,,
,,,,,,,,,,,,,,,,,,,,,,NIE,,,,,,,,,,,,,
,,,,,,,,,,,,,,,,,,,,,,NIE,,,,,,,,,,,,,
,,,,,,,,,,,,,,,,,,,,,,NIE,,,,,,,,,,,,,
,,,,,,,,,,,,,,,,,,,,,,NIE,,,,,,,,,,,,,
,,,,,,,,,,,,,,,,,,,,,,NIE,,,,,,,,,,,,,
,,,,,,,,,,,,,,,,,,,,,,NIE,,,,,,,,,,,,,
,,,,,,,,,,,,,,,,,,,,,,NIE,,,,,,,,,,,,,
,,,,,,,,,,,,,,,,,,,,,,NIE,,,,,,,,,,,,,
,,,,,,,,,,,,,,,,,,,,,,NIE,,,,,,,,,,,,,
,,,,,,,,,,,,,,,,,,,,,,NIE,,,,,,,,,,,,,
,,,,,,,,,,,,,,,,,,,,,,NIE,,,,,,,,,,,,,
,,,,,,,,,,,,,,,,,,,,,,NIE,,,,,,,,,,,,,
,,,,,,,,,,,,,,,,,,,,,,NIE,,,,,,,,,,,,,
,,,,,,,,,,,,,,,,,,,,,,NIE,,,,,,,,,,,,,
,,,,,,,,,,,,,,,,,,,,,,NIE,,,,,,,,,,,,,
,,,,,,,,,,,,,,,,,,,,,,NIE,,,,,,,,,,,,,
,,,,,,,,,,,,,,,,,,,,,,NIE,,,,,,,,,,,,,
,,,,,,,,,,,,,,,,,,,,,,NIE,,,,,,,,,,,,,
,,,,,,,,,,,,,,,,,,,,,,NIE,,,,,,,,,,,,,
,,,,,,,,,,,,,,,,,,,,,,NIE,,,,,,,,,,,,,
,,,,,,,,,,,,,,,,,,,,,,NIE,,,,,,,,,,,,,
,,,,,,,,,,,,,,,,,,,,,,NIE,,,,,,,,,,,,,
,,,,,,,,,,,,,,,,,,,,,,NIE,,,,,,,,,,,,,
,,,,,,,,,,,,,,,,,,,,,,NIE,,,,,,,,,,,,,
,,,,,,,,,,,,,,,,,,,,,,NIE,,,,,,,,,,,,,
,,,,,,,,,,,,,,,,,,,,,,NIE,,,,,,,,,,,,,
,,,,,,,,,,,,,,,,,,,,,,NIE,,,,,,,,,,,,,
,,,,,,,,,,,,,,,,,,,,,,NIE,,,,,,,,,,,,,
,,,,,,,,,,,,,,,,,,,,,,NIE,,,,,,,,,,,,,
,,,,,,,,,,,,,,,,,,,,,,NIE,,,,,,,,,,,,,
,,,,,,,,,,,,,,,,,,,,,,NIE,,,,,,,,,,,,,
,,,,,,,,,,,,,,,,,,,,,,NIE,,,,,,,,,,,,,
,,,,,,,,,,,,,,,,,,,,,,NIE,,,,,,,,,,,,,
,,,,,,,,,,,,,,,,,,,,,,NIE,,,,,,,,,,,,,
,,,,,,,,,,,,,,,,,,,,,,NIE,,,,,,,,,,,,,
,,,,,,,,,,,,,,,,,,,,,,NIE,,,,,,,,,,,,,
,,,,,,,,,,,,,,,,,,,,,,NIE,,,,,,,,,,,,,
,,,,,,,,,,,,,,,,,,,,,,NIE,,,,,,,,,,,,,
,,,,,,,,,,,,,,,,,,,,,,NIE,,,,,,,,,,,,,
,,,,,,,,,,,,,,,,,,,,,,NIE,,,,,,,,,,,,,
,,,,,,,,,,,,,,,,,,,,,,NIE,,,,,,,,,,,,,
,,,,,,,,,,,,,,,,,,,,,,NIE,,,,,,,,,,,,,
,,,,,,,,,,,,,,,,,,,,,,NIE,,,,,,,,,,,,,
,,,,,,,,,,,,,,,,,,,,,,NIE,,,,,,,,,,,,,
,,,,,,,,,,,,,,,,,,,,,,NIE,,,,,,,,,,,,,
,,,,,,,,,,,,,,,,,,,,,,NIE,,,,,,,,,,,,,
,,,,,,,,,,,,,,,,,,,,,,NIE,,,,,,,,,,,,,
,,,,,,,,,,,,,,,,,,,,,,NIE,,,,,,,,,,,,,
,,,,,,,,,,,,,,,,,,,,,,NIE,,,,,,,,,,,,,
,,,,,,,,,,,,,,,,,,,,,,NIE,,,,,,,,,,,,,
,,,,,,,,,,,,,,,,,,,,,,NIE,,,,,,,,,,,,,
,,,,,,,,,,,,,,,,,,,,,,NIE,,,,,,,,,,,,,
,,,,,,,,,,,,,,,,,,,,,,NIE,,,,,,,,,,,,,
,,,,,,,,,,,,,,,,,,,,,,NIE,,,,,,,,,,,,,
,,,,,,,,,,,,,,,,,,,,,,NIE,,,,,,,,,,,,,
,,,,,,,,,,,,,,,,,,,,,,NIE,,,,,,,,,,,,,
,,,,,,,,,,,,,,,,,,,,,,NIE,,,,,,,,,,,,,
,,,,,,,,,,,,,,,,,,,,,,NIE,,,,,,,,,,,,,
,,,,,,,,,,,,,,,,,,,,,,NIE,,,,,,,,,,,,,
,,,,,,,,,,,,,,,,,,,,,,NIE,,,,,,,,,,,,,
,,,,,,,,,,,,,,,,,,,,,,NIE,,,,,,,,,,,,,
,,,,,,,,,,,,,,,,,,,,,,NIE,,,,,,,,,,,,,
,,,,,,,,,,,,,,,,,,,,,,NIE,,,,,,,,,,,,,
,,,,,,,,,,,,,,,,,,,,,,NIE,,,,,,,,,,,,,
,,,,,,,,,,,,,,,,,,,,,,NIE,,,,,,,,,,,,,
,,,,,,,,,,,,,,,,,,,,,,NIE,,,,,,,,,,,,,
,,,,,,,,,,,,,,,,,,,,,,NIE,,,,,,,,,,,,,
,,,,,,,,,,,,,,,,,,,,,,NIE,,,,,,,,,,,,,
,,,,,,,,,,,,,,,,,,,,,,NIE,,,,,,,,,,,,,
,,,,,,,,,,,,,,,,,,,,,,NIE,,,,,,,,,,,,,
,,,,,,,,,,,,,,,,,,,,,,NIE,,,,,,,,,,,,,
,,,,,,,,,,,,,,,,,,,,,,NIE,,,,,,,,,,,,,
,,,,,,,,,,,,,,,,,,,,,,NIE,,,,,,,,,,,,,
,,,,,,,,,,,,,,,,,,,,,,NIE,,,,,,,,,,,,,
,,,,,,,,,,,,,,,,,,,,,,NIE,,,,,,,,,,,,,
,,,,,,,,,,,,,,,,,,,,,,NIE,,,,,,,,,,,,,
,,,,,,,,,,,,,,,,,,,,,,NIE,,,,,,,,,,,,,
,,,,,,,,,,,,,,,,,,,,,,NIE,,,,,,,,,,,,,
,,,,,,,,,,,,,,,,,,,,,,NIE,,,,,,,,,,,,,
,,,,,,,,,,,,,,,,,,,,,,NIE,,,,,,,,,,,,,
,,,,,,,,,,,,,,,,,,,,,,NIE,,,,,,,,,,,,,
,,,,,,,,,,,,,,,,,,,,,,NIE,,,,,,,,,,,,,
,,,,,,,,,,,,,,,,,,,,,,NIE,,,,,,,,,,,,,
,,,,,,,,,,,,,,,,,,,,,,NIE,,,,,,,,,,,,,
,,,,,,,,,,,,,,,,,,,,,,NIE,,,,,,,,,,,,,
,,,,,,,,,,,,,,,,,,,,,,NIE,,,,,,,,,,,,,
,,,,,,,,,,,,,,,,,,,,,,NIE,,,,,,,,,,,,,
,,,,,,,,,,,,,,,,,,,,,,NIE,,,,,,,,,,,,,
,,,,,,,,,,,,,,,,,,,,,,NIE,,,,,,,,,,,,,
,,,,,,,,,,,,,,,,,,,,,,NIE,,,,,,,,,,,,,
,,,,,,,,,,,,,,,,,,,,,,NIE,,,,,,,,,,,,,
,,,,,,,,,,,,,,,,,,,,,,NIE,,,,,,,,,,,,,
,,,,,,,,,,,,,,,,,,,,,,NIE,,,,,,,,,,,,,
,,,,,,,,,,,,,,,,,,,,,,NIE,,,,,,,,,,,,,
,,,,,,,,,,,,,,,,,,,,,,NIE,,,,,,,,,,,,,
,,,,,,,,,,,,,,,,,,,,,,NIE,,,,,,,,,,,,,
,,,,,,,,,,,,,,,,,,,,,,NIE,,,,,,,,,,,,,
,,,,,,,,,,,,,,,,,,,,,,NIE,,,,,,,,,,,,,
,,,,,,,,,,,,,,,,,,,,,,NIE,,,,,,,,,,,,,
,,,,,,,,,,,,,,,,,,,,,,NIE,,,,,,,,,,,,,
,,,,,,,,,,,,,,,,,,,,,,NIE,,,,,,,,,,,,,
,,,,,,,,,,,,,,,,,,,,,,NIE,,,,,,,,,,,,,
,,,,,,,,,,,,,,,,,,,,,,NIE,,,,,,,,,,,,,
,,,,,,,,,,,,,,,,,,,,,,NIE,,,,,,,,,,,,,
,,,,,,,,,,,,,,,,,,,,,,NIE,,,,,,,,,,,,,
,,,,,,,,,,,,,,,,,,,,,,NIE,,,,,,,,,,,,,
,,,,,,,,,,,,,,,,,,,,,,NIE,,,,,,,,,,,,,
,,,,,,,,,,,,,,,,,,,,,,NIE,,,,,,,,,,,,,
,,,,,,,,,,,,,,,,,,,,,,NIE,,,,,,,,,,,,,
,,,,,,,,,,,,,,,,,,,,,,NIE,,,,,,,,,,,,,
,,,,,,,,,,,,,,,,,,,,,,NIE,,,,,,,,,,,,,
,,,,,,,,,,,,,,,,,,,,,,NIE,,,,,,,,,,,,,
,,,,,,,,,,,,,,,,,,,,,,NIE,,,,,,,,,,,,,
,,,,,,,,,,,,,,,,,,,,,,NIE,,,,,,,,,,,,,
,,,,,,,,,,,,,,,,,,,,,,NIE,,,,,,,,,,,,,
,,,,,,,,,,,,,,,,,,,,,,NIE,,,,,,,,,,,,,
,,,,,,,,,,,,,,,,,,,,,,NIE,,,,,,,,,,,,,
,,,,,,,,,,,,,,,,,,,,,,NIE,,,,,,,,,,,,,
,,,,,,,,,,,,,,,,,,,,,,NIE,,,,,,,,,,,,,
,,,,,,,,,,,,,,,,,,,,,,NIE,,,,,,,,,,,,,
,,,,,,,,,,,,,,,,,,,,,,NIE,,,,,,,,,,,,,
,,,,,,,,,,,,,,,,,,,,,,NIE,,,,,,,,,,,,,
,,,,,,,,,,,,,,,,,,,,,,NIE,,,,,,,,,,,,,
,,,,,,,,,,,,,,,,,,,,,,NIE,,,,,,,,,,,,,
,,,,,,,,,,,,,,,,,,,,,,NIE,,,,,,,,,,,,,
,,,,,,,,,,,,,,,,,,,,,,NIE,,,,,,,,,,,,,
,,,,,,,,,,,,,,,,,,,,,,NIE,,,,,,,,,,,,,
,,,,,,,,,,,,,,,,,,,,,,NIE,,,,,,,,,,,,,
,,,,,,,,,,,,,,,,,,,,,,NIE,,,,,,,,,,,,,
,,,,,,,,,,,,,,,,,,,,,,NIE,,,,,,,,,,,,,
,,,,,,,,,,,,,,,,,,,,,,NIE,,,,,,,,,,,,,
,,,,,,,,,,,,,,,,,,,,,,NIE,,,,,,,,,,,,,
,,,,,,,,,,,,,,,,,,,,,,NIE,,,,,,,,,,,,,
,,,,,,,,,,,,,,,,,,,,,,NIE,,,,,,,,,,,,,
,,,,,,,,,,,,,,,,,,,,,,NIE,,,,,,,,,,,,,
,,,,,,,,,,,,,,,,,,,,,,NIE,,,,,,,,,,,,,
,,,,,,,,,,,,,,,,,,,,,,NIE,,,,,,,,,,,,,
,,,,,,,,,,,,,,,,,,,,,,NIE,,,,,,,,,,,,,
,,,,,,,,,,,,,,,,,,,,,,NIE,,,,,,,,,,,,,
,,,,,,,,,,,,,,,,,,,,,,NIE,,,,,,,,,,,,,
,,,,,,,,,,,,,,,,,,,,,,NIE,,,,,,,,,,,,,
,,,,,,,,,,,,,,,,,,,,,,NIE,,,,,,,,,,,,,
,,,,,,,,,,,,,,,,,,,,,,NIE,,,,,,,,,,,,,
,,,,,,,,,,,,,,,,,,,,,,NIE,,,,,,,,,,,,,
,,,,,,,,,,,,,,,,,,,,,,NIE,,,,,,,,,,,,,
,,,,,,,,,,,,,,,,,,,,,,NIE,,,,,,,,,,,,,
,,,,,,,,,,,,,,,,,,,,,,NIE,,,,,,,,,,,,,
,,,,,,,,,,,,,,,,,,,,,,NIE,,,,,,,,,,,,,
,,,,,,,,,,,,,,,,,,,,,,NIE,,,,,,,,,,,,,
,,,,,,,,,,,,,,,,,,,,,,NIE,,,,,,,,,,,,,
,,,,,,,,,,,,,,,,,,,,,,NIE,,,,,,,,,,,,,
,,,,,,,,,,,,,,,,,,,,,,NIE,,,,,,,,,,,,,
,,,,,,,,,,,,,,,,,,,,,,NIE,,,,,,,,,,,,,
,,,,,,,,,,,,,,,,,,,,,,NIE,,,,,,,,,,,,,
,,,,,,,,,,,,,,,,,,,,,,NIE,,,,,,,,,,,,,
,,,,,,,,,,,,,,,,,,,,,,NIE,,,,,,,,,,,,,
,,,,,,,,,,,,,,,,,,,,,,NIE,,,,,,,,,,,,,
,,,,,,,,,,,,,,,,,,,,,,NIE,,,,,,,,,,,,,
,,,,,,,,,,,,,,,,,,,,,,NIE,,,,,,,,,,,,,
,,,,,,,,,,,,,,,,,,,,,,NIE,,,,,,,,,,,,,
,,,,,,,,,,,,,,,,,,,,,,NIE,,,,,,,,,,,,,
,,,,,,,,,,,,,,,,,,,,,,NIE,,,,,,,,,,,,,
,,,,,,,,,,,,,,,,,,,,,,NIE,,,,,,,,,,,,,
,,,,,,,,,,,,,,,,,,,,,,NIE,,,,,,,,,,,,,
,,,,,,,,,,,,,,,,,,,,,,NIE,,,,,,,,,,,,,
,,,,,,,,,,,,,,,,,,,,,,NIE,,,,,,,,,,,,,
,,,,,,,,,,,,,,,,,,,,,,NIE,,,,,,,,,,,,,
,,,,,,,,,,,,,,,,,,,,,,NIE,,,,,,,,,,,,,
,,,,,,,,,,,,,,,,,,,,,,NIE,,,,,,,,,,,,,
,,,,,,,,,,,,,,,,,,,,,,NIE,,,,,,,,,,,,,
,,,,,,,,,,,,,,,,,,,,,,NIE,,,,,,,,,,,,,
,,,,,,,,,,,,,,,,,,,,,,NIE,,,,,,,,,,,,,
,,,,,,,,,,,,,,,,,,,,,,NIE,,,,,,,,,,,,,
,,,,,,,,,,,,,,,,,,,,,,NIE,,,,,,,,,,,,,
,,,,,,,,,,,,,,,,,,,,,,NIE,,,,,,,,,,,,,
,,,,,,,,,,,,,,,,,,,,,,NIE,,,,,,,,,,,,,
,,,,,,,,,,,,,,,,,,,,,,NIE,,,,,,,,,,,,,
,,,,,,,,,,,,,,,,,,,,,,NIE,,,,,,,,,,,,,
,,,,,,,,,,,,,,,,,,,,,,NIE,,,,,,,,,,,,,
,,,,,,,,,,,,,,,,,,,,,,NIE,,,,,,,,,,,,,
,,,,,,,,,,,,,,,,,,,,,,NIE,,,,,,,,,,,,,
,,,,,,,,,,,,,,,,,,,,,,NIE,,,,,,,,,,,,,
,,,,,,,,,,,,,,,,,,,,,,NIE,,,,,,,,,,,,,
,,,,,,,,,,,,,,,,,,,,,,NIE,,,,,,,,,,,,,
,,,,,,,,,,,,,,,,,,,,,,NIE,,,,,,,,,,,,,
,,,,,,,,,,,,,,,,,,,,,,NIE,,,,,,,,,,,,,
,,,,,,,,,,,,,,,,,,,,,,NIE,,,,,,,,,,,,,
,,,,,,,,,,,,,,,,,,,,,,NIE,,,,,,,,,,,,,
,,,,,,,,,,,,,,,,,,,,,,NIE,,,,,,,,,,,,,
,,,,,,,,,,,,,,,,,,,,,,NIE,,,,,,,,,,,,,
,,,,,,,,,,,,,,,,,,,,,,NIE,,,,,,,,,,,,,
,,,,,,,,,,,,,,,,,,,,,,NIE,,,,,,,,,,,,,
,,,,,,,,,,,,,,,,,,,,,,NIE,,,,,,,,,,,,,
,,,,,,,,,,,,,,,,,,,,,,NIE,,,,,,,,,,,,,
,,,,,,,,,,,,,,,,,,,,,,NIE,,,,,,,,,,,,,
,,,,,,,,,,,,,,,,,,,,,,NIE,,,,,,,,,,,,,
,,,,,,,,,,,,,,,,,,,,,,NIE,,,,,,,,,,,,,
,,,,,,,,,,,,,,,,,,,,,,NIE,,,,,,,,,,,,,
,,,,,,,,,,,,,,,,,,,,,,NIE,,,,,,,,,,,,,
,,,,,,,,,,,,,,,,,,,,,,NIE,,,,,,,,,,,,,
,,,,,,,,,,,,,,,,,,,,,,NIE,,,,,,,,,,,,,
,,,,,,,,,,,,,,,,,,,,,,NIE,,,,,,,,,,,,,
,,,,,,,,,,,,,,,,,,,,,,NIE,,,,,,,,,,,,,
,,,,,,,,,,,,,,,,,,,,,,NIE,,,,,,,,,,,,,
,,,,,,,,,,,,,,,,,,,,,,NIE,,,,,,,,,,,,,
,,,,,,,,,,,,,,,,,,,,,,NIE,,,,,,,,,,,,,
,,,,,,,,,,,,,,,,,,,,,,NIE,,,,,,,,,,,,,
,,,,,,,,,,,,,,,,,,,,,,NIE,,,,,,,,,,,,,
,,,,,,,,,,,,,,,,,,,,,,NIE,,,,,,,,,,,,,
,,,,,,,,,,,,,,,,,,,,,,NIE,,,,,,,,,,,,,
,,,,,,,,,,,,,,,,,,,,,,NIE,,,,,,,,,,,,,
,,,,,,,,,,,,,,,,,,,,,,NIE,,,,,,,,,,,,,
,,,,,,,,,,,,,,,,,,,,,,NIE,,,,,,,,,,,,,
,,,,,,,,,,,,,,,,,,,,,,NIE,,,,,,,,,,,,,
,,,,,,,,,,,,,,,,,,,,,,NIE,,,,,,,,,,,,,
,,,,,,,,,,,,,,,,,,,,,,NIE,,,,,,,,,,,,,
,,,,,,,,,,,,,,,,,,,,,,NIE,,,,,,,,,,,,,
,,,,,,,,,,,,,,,,,,,,,,NIE,,,,,,,,,,,,,
,,,,,,,,,,,,,,,,,,,,,,NIE,,,,,,,,,,,,,
,,,,,,,,,,,,,,,,,,,,,,NIE,,,,,,,,,,,,,
,,,,,,,,,,,,,,,,,,,,,,NIE,,,,,,,,,,,,,
,,,,,,,,,,,,,,,,,,,,,,NIE,,,,,,,,,,,,,
,,,,,,,,,,,,,,,,,,,,,,NIE,,,,,,,,,,,,,
,,,,,,,,,,,,,,,,,,,,,,NIE,,,,,,,,,,,,,
,,,,,,,,,,,,,,,,,,,,,,NIE,,,,,,,,,,,,,
,,,,,,,,,,,,,,,,,,,,,,NIE,,,,,,,,,,,,,
,,,,,,,,,,,,,,,,,,,,,,NIE,,,,,,,,,,,,,
,,,,,,,,,,,,,,,,,,,,,,NIE,,,,,,,,,,,,,
,,,,,,,,,,,,,,,,,,,,,,NIE,,,,,,,,,,,,,
,,,,,,,,,,,,,,,,,,,,,,NIE,,,,,,,,,,,,,
,,,,,,,,,,,,,,,,,,,,,,NIE,,,,,,,,,,,,,
,,,,,,,,,,,,,,,,,,,,,,NIE,,,,,,,,,,,,,
,,,,,,,,,,,,,,,,,,,,,,NIE,,,,,,,,,,,,,
,,,,,,,,,,,,,,,,,,,,,,NIE,,,,,,,,,,,,,
,,,,,,,,,,,,,,,,,,,,,,NIE,,,,,,,,,,,,,
,,,,,,,,,,,,,,,,,,,,,,NIE,,,,,,,,,,,,,
,,,,,,,,,,,,,,,,,,,,,,NIE,,,,,,,,,,,,,
,,,,,,,,,,,,,,,,,,,,,,NIE,,,,,,,,,,,,,
,,,,,,,,,,,,,,,,,,,,,,NIE,,,,,,,,,,,,,
,,,,,,,,,,,,,,,,,,,,,,NIE,,,,,,,,,,,,,
,,,,,,,,,,,,,,,,,,,,,,NIE,,,,,,,,,,,,,
,,,,,,,,,,,,,,,,,,,,,,NIE,,,,,,,,,,,,,
,,,,,,,,,,,,,,,,,,,,,,NIE,,,,,,,,,,,,,
,,,,,,,,,,,,,,,,,,,,,,NIE,,,,,,,,,,,,,
,,,,,,,,,,,,,,,,,,,,,,NIE,,,,,,,,,,,,,
,,,,,,,,,,,,,,,,,,,,,,NIE,,,,,,,,,,,,,
,,,,,,,,,,,,,,,,,,,,,,NIE,,,,,,,,,,,,,
,,,,,,,,,,,,,,,,,,,,,,NIE,,,,,,,,,,,,,
,,,,,,,,,,,,,,,,,,,,,,NIE,,,,,,,,,,,,,
,,,,,,,,,,,,,,,,,,,,,,NIE,,,,,,,,,,,,,
,,,,,,,,,,,,,,,,,,,,,,NIE,,,,,,,,,,,,,
,,,,,,,,,,,,,,,,,,,,,,NIE,,,,,,,,,,,,,
,,,,,,,,,,,,,,,,,,,,,,NIE,,,,,,,,,,,,,
,,,,,,,,,,,,,,,,,,,,,,NIE,,,,,,,,,,,,,
,,,,,,,,,,,,,,,,,,,,,,NIE,,,,,,,,,,,,,
,,,,,,,,,,,,,,,,,,,,,,NIE,,,,,,,,,,,,,
,,,,,,,,,,,,,,,,,,,,,,NIE,,,,,,,,,,,,,
,,,,,,,,,,,,,,,,,,,,,,NIE,,,,,,,,,,,,,
,,,,,,,,,,,,,,,,,,,,,,NIE,,,,,,,,,,,,,
,,,,,,,,,,,,,,,,,,,,,,NIE,,,,,,,,,,,,,
,,,,,,,,,,,,,,,,,,,,,,NIE,,,,,,,,,,,,,
,,,,,,,,,,,,,,,,,,,,,,NIE,,,,,,,,,,,,,
,,,,,,,,,,,,,,,,,,,,,,NIE,,,,,,,,,,,,,
,,,,,,,,,,,,,,,,,,,,,,NIE,,,,,,,,,,,,,
,,,,,,,,,,,,,,,,,,,,,,NIE,,,,,,,,,,,,,
,,,,,,,,,,,,,,,,,,,,,,NIE,,,,,,,,,,,,,
,,,,,,,,,,,,,,,,,,,,,,NIE,,,,,,,,,,,,,
,,,,,,,,,,,,,,,,,,,,,,NIE,,,,,,,,,,,,,
,,,,,,,,,,,,,,,,,,,,,,NIE,,,,,,,,,,,,,
,,,,,,,,,,,,,,,,,,,,,,NIE,,,,,,,,,,,,,
,,,,,,,,,,,,,,,,,,,,,,NIE,,,,,,,,,,,,,
,,,,,,,,,,,,,,,,,,,,,,NIE,,,,,,,,,,,,,
,,,,,,,,,,,,,,,,,,,,,,NIE,,,,,,,,,,,,,
,,,,,,,,,,,,,,,,,,,,,,NIE,,,,,,,,,,,,,
,,,,,,,,,,,,,,,,,,,,,,NIE,,,,,,,,,,,,,
,,,,,,,,,,,,,,,,,,,,,,NIE,,,,,,,,,,,,,
,,,,,,,,,,,,,,,,,,,,,,NIE,,,,,,,,,,,,,
,,,,,,,,,,,,,,,,,,,,,,NIE,,,,,,,,,,,,,
,,,,,,,,,,,,,,,,,,,,,,NIE,,,,,,,,,,,,,
,,,,,,,,,,,,,,,,,,,,,,NIE,,,,,,,,,,,,,
,,,,,,,,,,,,,,,,,,,,,,NIE,,,,,,,,,,,,,
,,,,,,,,,,,,,,,,,,,,,,NIE,,,,,,,,,,,,,
,,,,,,,,,,,,,,,,,,,,,,NIE,,,,,,,,,,,,,
,,,,,,,,,,,,,,,,,,,,,,NIE,,,,,,,,,,,,,
,,,,,,,,,,,,,,,,,,,,,,NIE,,,,,,,,,,,,,
,,,,,,,,,,,,,,,,,,,,,,NIE,,,,,,,,,,,,,
,,,,,,,,,,,,,,,,,,,,,,NIE,,,,,,,,,,,,,
,,,,,,,,,,,,,,,,,,,,,,NIE,,,,,,,,,,,,,
,,,,,,,,,,,,,,,,,,,,,,NIE,,,,,,,,,,,,,
,,,,,,,,,,,,,,,,,,,,,,NIE,,,,,,,,,,,,,
,,,,,,,,,,,,,,,,,,,,,,NIE,,,,,,,,,,,,,
,,,,,,,,,,,,,,,,,,,,,,NIE,,,,,,,,,,,,,
,,,,,,,,,,,,,,,,,,,,,,NIE,,,,,,,,,,,,,
,,,,,,,,,,,,,,,,,,,,,,NIE,,,,,,,,,,,,,
,,,,,,,,,,,,,,,,,,,,,,NIE,,,,,,,,,,,,,
,,,,,,,,,,,,,,,,,,,,,,NIE,,,,,,,,,,,,,
,,,,,,,,,,,,,,,,,,,,,,NIE,,,,,,,,,,,,,
,,,,,,,,,,,,,,,,,,,,,,NIE,,,,,,,,,,,,,
,,,,,,,,,,,,,,,,,,,,,,NIE,,,,,,,,,,,,,
,,,,,,,,,,,,,,,,,,,,,,NIE,,,,,,,,,,,,,
,,,,,,,,,,,,,,,,,,,,,,NIE,,,,,,,,,,,,,
,,,,,,,,,,,,,,,,,,,,,,NIE,,,,,,,,,,,,,
,,,,,,,,,,,,,,,,,,,,,,NIE,,,,,,,,,,,,,
,,,,,,,,,,,,,,,,,,,,,,NIE,,,,,,,,,,,,,
,,,,,,,,,,,,,,,,,,,,,,NIE,,,,,,,,,,,,,
,,,,,,,,,,,,,,,,,,,,,,NIE,,,,,,,,,,,,,
,,,,,,,,,,,,,,,,,,,,,,NIE,,,,,,,,,,,,,
,,,,,,,,,,,,,,,,,,,,,,NIE,,,,,,,,,,,,,
,,,,,,,,,,,,,,,,,,,,,,NIE,,,,,,,,,,,,,
,,,,,,,,,,,,,,,,,,,,,,NIE,,,,,,,,,,,,,
,,,,,,,,,,,,,,,,,,,,,,NIE,,,,,,,,,,,,,
,,,,,,,,,,,,,,,,,,,,,,NIE,,,,,,,,,,,,,
,,,,,,,,,,,,,,,,,,,,,,NIE,,,,,,,,,,,,,
,,,,,,,,,,,,,,,,,,,,,,NIE,,,,,,,,,,,,,
,,,,,,,,,,,,,,,,,,,,,,NIE,,,,,,,,,,,,,
,,,,,,,,,,,,,,,,,,,,,,NIE,,,,,,,,,,,,,
,,,,,,,,,,,,,,,,,,,,,,NIE,,,,,,,,,,,,,
,,,,,,,,,,,,,,,,,,,,,,NIE,,,,,,,,,,,,,
,,,,,,,,,,,,,,,,,,,,,,NIE,,,,,,,,,,,,,
,,,,,,,,,,,,,,,,,,,,,,NIE,,,,,,,,,,,,,
,,,,,,,,,,,,,,,,,,,,,,NIE,,,,,,,,,,,,,
,,,,,,,,,,,,,,,,,,,,,,NIE,,,,,,,,,,,,,
,,,,,,,,,,,,,,,,,,,,,,NIE,,,,,,,,,,,,,
,,,,,,,,,,,,,,,,,,,,,,NIE,,,,,,,,,,,,,
,,,,,,,,,,,,,,,,,,,,,,NIE,,,,,,,,,,,,,
,,,,,,,,,,,,,,,,,,,,,,NIE,,,,,,,,,,,,,
,,,,,,,,,,,,,,,,,,,,,,NIE,,,,,,,,,,,,,
,,,,,,,,,,,,,,,,,,,,,,NIE,,,,,,,,,,,,,
,,,,,,,,,,,,,,,,,,,,,,NIE,,,,,,,,,,,,,
,,,,,,,,,,,,,,,,,,,,,,NIE,,,,,,,,,,,,,
,,,,,,,,,,,,,,,,,,,,,,NIE,,,,,,,,,,,,,
,,,,,,,,,,,,,,,,,,,,,,NIE,,,,,,,,,,,,,
,,,,,,,,,,,,,,,,,,,,,,NIE,,,,,,,,,,,,,
,,,,,,,,,,,,,,,,,,,,,,NIE,,,,,,,,,,,,,
,,,,,,,,,,,,,,,,,,,,,,NIE,,,,,,,,,,,,,
,,,,,,,,,,,,,,,,,,,,,,NIE,,,,,,,,,,,,,
,,,,,,,,,,,,,,,,,,,,,,NIE,,,,,,,,,,,,,
,,,,,,,,,,,,,,,,,,,,,,NIE,,,,,,,,,,,,,
,,,,,,,,,,,,,,,,,,,,,,NIE,,,,,,,,,,,,,
,,,,,,,,,,,,,,,,,,,,,,NIE,,,,,,,,,,,,,
,,,,,,,,,,,,,,,,,,,,,,NIE,,,,,,,,,,,,,
,,,,,,,,,,,,,,,,,,,,,,NIE,,,,,,,,,,,,,
,,,,,,,,,,,,,,,,,,,,,,NIE,,,,,,,,,,,,,
,,,,,,,,,,,,,,,,,,,,,,NIE,,,,,,,,,,,,,
,,,,,,,,,,,,,,,,,,,,,,NIE,,,,,,,,,,,,,
,,,,,,,,,,,,,,,,,,,,,,NIE,,,,,,,,,,,,,
,,,,,,,,,,,,,,,,,,,,,,NIE,,,,,,,,,,,,,
,,,,,,,,,,,,,,,,,,,,,,NIE,,,,,,,,,,,,,
,,,,,,,,,,,,,,,,,,,,,,NIE,,,,,,,,,,,,,
,,,,,,,,,,,,,,,,,,,,,,NIE,,,,,,,,,,,,,
,,,,,,,,,,,,,,,,,,,,,,NIE,,,,,,,,,,,,,
,,,,,,,,,,,,,,,,,,,,,,NIE,,,,,,,,,,,,,
,,,,,,,,,,,,,,,,,,,,,,NIE,,,,,,,,,,,,,
,,,,,,,,,,,,,,,,,,,,,,NIE,,,,,,,,,,,,,
,,,,,,,,,,,,,,,,,,,,,,NIE,,,,,,,,,,,,,
,,,,,,,,,,,,,,,,,,,,,,NIE,,,,,,,,,,,,,
,,,,,,,,,,,,,,,,,,,,,,NIE,,,,,,,,,,,,,
,,,,,,,,,,,,,,,,,,,,,,NIE,,,,,,,,,,,,,
,,,,,,,,,,,,,,,,,,,,,,NIE,,,,,,,,,,,,,
,,,,,,,,,,,,,,,,,,,,,,NIE,,,,,,,,,,,,,
,,,,,,,,,,,,,,,,,,,,,,NIE,,,,,,,,,,,,,
,,,,,,,,,,,,,,,,,,,,,,NIE,,,,,,,,,,,,,
,,,,,,,,,,,,,,,,,,,,,,NIE,,,,,,,,,,,,,
,,,,,,,,,,,,,,,,,,,,,,NIE,,,,,,,,,,,,,
,,,,,,,,,,,,,,,,,,,,,,NIE,,,,,,,,,,,,,
,,,,,,,,,,,,,,,,,,,,,,NIE,,,,,,,,,,,,,
,,,,,,,,,,,,,,,,,,,,,,NIE,,,,,,,,,,,,,
,,,,,,,,,,,,,,,,,,,,,,NIE,,,,,,,,,,,,,
,,,,,,,,,,,,,,,,,,,,,,NIE,,,,,,,,,,,,,
,,,,,,,,,,,,,,,,,,,,,,NIE,,,,,,,,,,,,,
,,,,,,,,,,,,,,,,,,,,,,NIE,,,,,,,,,,,,,
,,,,,,,,,,,,,,,,,,,,,,NIE,,,,,,,,,,,,,
,,,,,,,,,,,,,,,,,,,,,,NIE,,,,,,,,,,,,,
,,,,,,,,,,,,,,,,,,,,,,NIE,,,,,,,,,,,,,
,,,,,,,,,,,,,,,,,,,,,,NIE,,,,,,,,,,,,,
,,,,,,,,,,,,,,,,,,,,,,NIE,,,,,,,,,,,,,
,,,,,,,,,,,,,,,,,,,,,,NIE,,,,,,,,,,,,,
,,,,,,,,,,,,,,,,,,,,,,NIE,,,,,,,,,,,,,
,,,,,,,,,,,,,,,,,,,,,,NIE,,,,,,,,,,,,,
,,,,,,,,,,,,,,,,,,,,,,NIE,,,,,,,,,,,,,
,,,,,,,,,,,,,,,,,,,,,,NIE,,,,,,,,,,,,,
,,,,,,,,,,,,,,,,,,,,,,NIE,,,,,,,,,,,,,
,,,,,,,,,,,,,,,,,,,,,,NIE,,,,,,,,,,,,,
,,,,,,,,,,,,,,,,,,,,,,NIE,,,,,,,,,,,,,
,,,,,,,,,,,,,,,,,,,,,,NIE,,,,,,,,,,,,,
,,,,,,,,,,,,,,,,,,,,,,NIE,,,,,,,,,,,,,
,,,,,,,,,,,,,,,,,,,,,,NIE,,,,,,,,,,,,,
,,,,,,,,,,,,,,,,,,,,,,NIE,,,,,,,,,,,,,
,,,,,,,,,,,,,,,,,,,,,,NIE,,,,,,,,,,,,,
,,,,,,,,,,,,,,,,,,,,,,NIE,,,,,,,,,,,,,
,,,,,,,,,,,,,,,,,,,,,,NIE,,,,,,,,,,,,,
,,,,,,,,,,,,,,,,,,,,,,NIE,,,,,,,,,,,,,
,,,,,,,,,,,,,,,,,,,,,,NIE,,,,,,,,,,,,,
,,,,,,,,,,,,,,,,,,,,,,NIE,,,,,,,,,,,,,
,,,,,,,,,,,,,,,,,,,,,,NIE,,,,,,,,,,,,,
,,,,,,,,,,,,,,,,,,,,,,NIE,,,,,,,,,,,,,
,,,,,,,,,,,,,,,,,,,,,,NIE,,,,,,,,,,,,,
,,,,,,,,,,,,,,,,,,,,,,NIE,,,,,,,,,,,,,
,,,,,,,,,,,,,,,,,,,,,,NIE,,,,,,,,,,,,,
,,,,,,,,,,,,,,,,,,,,,,NIE,,,,,,,,,,,,,
,,,,,,,,,,,,,,,,,,,,,,NIE,,,,,,,,,,,,,
,,,,,,,,,,,,,,,,,,,,,,NIE,,,,,,,,,,,,,
,,,,,,,,,,,,,,,,,,,,,,NIE,,,,,,,,,,,,,
,,,,,,,,,,,,,,,,,,,,,,NIE,,,,,,,,,,,,,
,,,,,,,,,,,,,,,,,,,,,,NIE,,,,,,,,,,,,,
,,,,,,,,,,,,,,,,,,,,,,NIE,,,,,,,,,,,,,
,,,,,,,,,,,,,,,,,,,,,,NIE,,,,,,,,,,,,,
,,,,,,,,,,,,,,,,,,,,,,NIE,,,,,,,,,,,,,
,,,,,,,,,,,,,,,,,,,,,,NIE,,,,,,,,,,,,,
,,,,,,,,,,,,,,,,,,,,,,NIE,,,,,,,,,,,,,
,,,,,,,,,,,,,,,,,,,,,,NIE,,,,,,,,,,,,,
,,,,,,,,,,,,,,,,,,,,,,NIE,,,,,,,,,,,,,
,,,,,,,,,,,,,,,,,,,,,,NIE,,,,,,,,,,,,,
,,,,,,,,,,,,,,,,,,,,,,NIE,,,,,,,,,,,,,
,,,,,,,,,,,,,,,,,,,,,,NIE,,,,,,,,,,,,,
,,,,,,,,,,,,,,,,,,,,,,NIE,,,,,,,,,,,,,
,,,,,,,,,,,,,,,,,,,,,,NIE,,,,,,,,,,,,,
,,,,,,,,,,,,,,,,,,,,,,NIE,,,,,,,,,,,,,
,,,,,,,,,,,,,,,,,,,,,,NIE,,,,,,,,,,,,,
,,,,,,,,,,,,,,,,,,,,,,NIE,,,,,,,,,,,,,
,,,,,,,,,,,,,,,,,,,,,,NIE,,,,,,,,,,,,,
,,,,,,,,,,,,,,,,,,,,,,NIE,,,,,,,,,,,,,
,,,,,,,,,,,,,,,,,,,,,,NIE,,,,,,,,,,,,,
,,,,,,,,,,,,,,,,,,,,,,NIE,,,,,,,,,,,,,
,,,,,,,,,,,,,,,,,,,,,,NIE,,,,,,,,,,,,,
,,,,,,,,,,,,,,,,,,,,,,NIE,,,,,,,,,,,,,
,,,,,,,,,,,,,,,,,,,,,,NIE,,,,,,,,,,,,,
,,,,,,,,,,,,,,,,,,,,,,NIE,,,,,,,,,,,,,
,,,,,,,,,,,,,,,,,,,,,,NIE,,,,,,,,,,,,,
,,,,,,,,,,,,,,,,,,,,,,NIE,,,,,,,,,,,,,
,,,,,,,,,,,,,,,,,,,,,,NIE,,,,,,,,,,,,,
,,,,,,,,,,,,,,,,,,,,,,NIE,,,,,,,,,,,,,
,,,,,,,,,,,,,,,,,,,,,,NIE,,,,,,,,,,,,,
,,,,,,,,,,,,,,,,,,,,,,NIE,,,,,,,,,,,,,
,,,,,,,,,,,,,,,,,,,,,,NIE,,,,,,,,,,,,,
,,,,,,,,,,,,,,,,,,,,,,NIE,,,,,,,,,,,,,
,,,,,,,,,,,,,,,,,,,,,,NIE,,,,,,,,,,,,,
,,,,,,,,,,,,,,,,,,,,,,NIE,,,,,,,,,,,,,
,,,,,,,,,,,,,,,,,,,,,,NIE,,,,,,,,,,,,,
,,,,,,,,,,,,,,,,,,,,,,NIE,,,,,,,,,,,,,
,,,,,,,,,,,,,,,,,,,,,,NIE,,,,,,,,,,,,,
,,,,,,,,,,,,,,,,,,,,,,NIE,,,,,,,,,,,,,
,,,,,,,,,,,,,,,,,,,,,,NIE,,,,,,,,,,,,,
,,,,,,,,,,,,,,,,,,,,,,NIE,,,,,,,,,,,,,
,,,,,,,,,,,,,,,,,,,,,,NIE,,,,,,,,,,,,,
,,,,,,,,,,,,,,,,,,,,,,NIE,,,,,,,,,,,,,
,,,,,,,,,,,,,,,,,,,,,,NIE,,,,,,,,,,,,,
,,,,,,,,,,,,,,,,,,,,,,NIE,,,,,,,,,,,,,
,,,,,,,,,,,,,,,,,,,,,,NIE,,,,,,,,,,,,,
,,,,,,,,,,,,,,,,,,,,,,NIE,,,,,,,,,,,,,
,,,,,,,,,,,,,,,,,,,,,,NIE,,,,,,,,,,,,,
,,,,,,,,,,,,,,,,,,,,,,NIE,,,,,,,,,,,,,
,,,,,,,,,,,,,,,,,,,,,,NIE,,,,,,,,,,,,,
,,,,,,,,,,,,,,,,,,,,,,NIE,,,,,,,,,,,,,
,,,,,,,,,,,,,,,,,,,,,,NIE,,,,,,,,,,,,,
,,,,,,,,,,,,,,,,,,,,,,NIE,,,,,,,,,,,,,
,,,,,,,,,,,,,,,,,,,,,,NIE,,,,,,,,,,,,,
,,,,,,,,,,,,,,,,,,,,,,NIE,,,,,,,,,,,,,
,,,,,,,,,,,,,,,,,,,,,,NIE,,,,,,,,,,,,,
,,,,,,,,,,,,,,,,,,,,,,NIE,,,,,,,,,,,,,
,,,,,,,,,,,,,,,,,,,,,,NIE,,,,,,,,,,,,,
,,,,,,,,,,,,,,,,,,,,,,NIE,,,,,,,,,,,,,
,,,,,,,,,,,,,,,,,,,,,,NIE,,,,,,,,,,,,,
,,,,,,,,,,,,,,,,,,,,,,NIE,,,,,,,,,,,,,
,,,,,,,,,,,,,,,,,,,,,,NIE,,,,,,,,,,,,,
,,,,,,,,,,,,,,,,,,,,,,NIE,,,,,,,,,,,,,
,,,,,,,,,,,,,,,,,,,,,,NIE,,,,,,,,,,,,,
,,,,,,,,,,,,,,,,,,,,,,NIE,,,,,,,,,,,,,
,,,,,,,,,,,,,,,,,,,,,,NIE,,,,,,,,,,,,,
,,,,,,,,,,,,,,,,,,,,,,NIE,,,,,,,,,,,,,
,,,,,,,,,,,,,,,,,,,,,,NIE,,,,,,,,,,,,,
,,,,,,,,,,,,,,,,,,,,,,NIE,,,,,,,,,,,,,
,,,,,,,,,,,,,,,,,,,,,,NIE,,,,,,,,,,,,,
,,,,,,,,,,,,,,,,,,,,,,NIE,,,,,,,,,,,,,
,,,,,,,,,,,,,,,,,,,,,,NIE,,,,,,,,,,,,,
,,,,,,,,,,,,,,,,,,,,,,NIE,,,,,,,,,,,,,
,,,,,,,,,,,,,,,,,,,,,,NIE,,,,,,,,,,,,,
,,,,,,,,,,,,,,,,,,,,,,NIE,,,,,,,,,,,,,
,,,,,,,,,,,,,,,,,,,,,,NIE,,,,,,,,,,,,,
,,,,,,,,,,,,,,,,,,,,,,NIE,,,,,,,,,,,,,
,,,,,,,,,,,,,,,,,,,,,,NIE,,,,,,,,,,,,,
,,,,,,,,,,,,,,,,,,,,,,NIE,,,,,,,,,,,,,
,,,,,,,,,,,,,,,,,,,,,,NIE,,,,,,,,,,,,,
,,,,,,,,,,,,,,,,,,,,,,NIE,,,,,,,,,,,,,
,,,,,,,,,,,,,,,,,,,,,,NIE,,,,,,,,,,,,,
,,,,,,,,,,,,,,,,,,,,,,NIE,,,,,,,,,,,,,
,,,,,,,,,,,,,,,,,,,,,,NIE,,,,,,,,,,,,,
,,,,,,,,,,,,,,,,,,,,,,NIE,,,,,,,,,,,,,
,,,,,,,,,,,,,,,,,,,,,,NIE,,,,,,,,,,,,,
,,,,,,,,,,,,,,,,,,,,,,NIE,,,,,,,,,,,,,
,,,,,,,,,,,,,,,,,,,,,,NIE,,,,,,,,,,,,,
,,,,,,,,,,,,,,,,,,,,,,NIE,,,,,,,,,,,,,
,,,,,,,,,,,,,,,,,,,,,,NIE,,,,,,,,,,,,,
,,,,,,,,,,,,,,,,,,,,,,NIE,,,,,,,,,,,,,
,,,,,,,,,,,,,,,,,,,,,,NIE,,,,,,,,,,,,,
,,,,,,,,,,,,,,,,,,,,,,NIE,,,,,,,,,,,,,
,,,,,,,,,,,,,,,,,,,,,,NIE,,,,,,,,,,,,,
,,,,,,,,,,,,,,,,,,,,,,NIE,,,,,,,,,,,,,
,,,,,,,,,,,,,,,,,,,,,,NIE,,,,,,,,,,,,,
,,,,,,,,,,,,,,,,,,,,,,NIE,,,,,,,,,,,,,
,,,,,,,,,,,,,,,,,,,,,,NIE,,,,,,,,,,,,,
,,,,,,,,,,,,,,,,,,,,,,NIE,,,,,,,,,,,,,
,,,,,,,,,,,,,,,,,,,,,,NIE,,,,,,,,,,,,,
,,,,,,,,,,,,,,,,,,,,,,NIE,,,,,,,,,,,,,
,,,,,,,,,,,,,,,,,,,,,,NIE,,,,,,,,,,,,,
,,,,,,,,,,,,,,,,,,,,,,NIE,,,,,,,,,,,,,
,,,,,,,,,,,,,,,,,,,,,,NIE,,,,,,,,,,,,,
,,,,,,,,,,,,,,,,,,,,,,NIE,,,,,,,,,,,,,
,,,,,,,,,,,,,,,,,,,,,,NIE,,,,,,,,,,,,,
,,,,,,,,,,,,,,,,,,,,,,NIE,,,,,,,,,,,,,
,,,,,,,,,,,,,,,,,,,,,,NIE,,,,,,,,,,,,,
,,,,,,,,,,,,,,,,,,,,,,NIE,,,,,,,,,,,,,
,,,,,,,,,,,,,,,,,,,,,,NIE,,,,,,,,,,,,,
,,,,,,,,,,,,,,,,,,,,,,NIE,,,,,,,,,,,,,
,,,,,,,,,,,,,,,,,,,,,,NIE,,,,,,,,,,,,,
,,,,,,,,,,,,,,,,,,,,,,NIE,,,,,,,,,,,,,
,,,,,,,,,,,,,,,,,,,,,,NIE,,,,,,,,,,,,,
,,,,,,,,,,,,,,,,,,,,,,NIE,,,,,,,,,,,,,
,,,,,,,,,,,,,,,,,,,,,,NIE,,,,,,,,,,,,,
,,,,,,,,,,,,,,,,,,,,,,NIE,,,,,,,,,,,,,
,,,,,,,,,,,,,,,,,,,,,,NIE,,,,,,,,,,,,,
,,,,,,,,,,,,,,,,,,,,,,NIE,,,,,,,,,,,,,
,,,,,,,,,,,,,,,,,,,,,,NIE,,,,,,,,,,,,,
,,,,,,,,,,,,,,,,,,,,,,NIE,,,,,,,,,,,,,
,,,,,,,,,,,,,,,,,,,,,,NIE,,,,,,,,,,,,,
,,,,,,,,,,,,,,,,,,,,,,NIE,,,,,,,,,,,,,
,,,,,,,,,,,,,,,,,,,,,,NIE,,,,,,,,,,,,,
,,,,,,,,,,,,,,,,,,,,,,NIE,,,,,,,,,,,,,
,,,,,,,,,,,,,,,,,,,,,,NIE,,,,,,,,,,,,,
,,,,,,,,,,,,,,,,,,,,,,NIE,,,,,,,,,,,,,
,,,,,,,,,,,,,,,,,,,,,,NIE,,,,,,,,,,,,,
,,,,,,,,,,,,,,,,,,,,,,NIE,,,,,,,,,,,,,
,,,,,,,,,,,,,,,,,,,,,,NIE,,,,,,,,,,,,,
,,,,,,,,,,,,,,,,,,,,,,NIE,,,,,,,,,,,,,
,,,,,,,,,,,,,,,,,,,,,,NIE,,,,,,,,,,,,,
,,,,,,,,,,,,,,,,,,,,,,NIE,,,,,,,,,,,,,
,,,,,,,,,,,,,,,,,,,,,,NIE,,,,,,,,,,,,,
,,,,,,,,,,,,,,,,,,,,,,NIE,,,,,,,,,,,,,
,,,,,,,,,,,,,,,,,,,,,,NIE,,,,,,,,,,,,,
,,,,,,,,,,,,,,,,,,,,,,NIE,,,,,,,,,,,,,
,,,,,,,,,,,,,,,,,,,,,,NIE,,,,,,,,,,,,,
,,,,,,,,,,,,,,,,,,,,,,NIE,,,,,,,,,,,,,
,,,,,,,,,,,,,,,,,,,,,,NIE,,,,,,,,,,,,,
,,,,,,,,,,,,,,,,,,,,,,NIE,,,,,,,,,,,,,
,,,,,,,,,,,,,,,,,,,,,,NIE,,,,,,,,,,,,,
,,,,,,,,,,,,,,,,,,,,,,NIE,,,,,,,,,,,,,
,,,,,,,,,,,,,,,,,,,,,,NIE,,,,,,,,,,,,,
,,,,,,,,,,,,,,,,,,,,,,NIE,,,,,,,,,,,,,
,,,,,,,,,,,,,,,,,,,,,,NIE,,,,,,,,,,,,,
,,,,,,,,,,,,,,,,,,,,,,NIE,,,,,,,,,,,,,
,,,,,,,,,,,,,,,,,,,,,,NIE,,,,,,,,,,,,,
,,,,,,,,,,,,,,,,,,,,,,NIE,,,,,,,,,,,,,
,,,,,,,,,,,,,,,,,,,,,,NIE,,,,,,,,,,,,,
,,,,,,,,,,,,,,,,,,,,,,NIE,,,,,,,,,,,,,
,,,,,,,,,,,,,,,,,,,,,,NIE,,,,,,,,,,,,,
,,,,,,,,,,,,,,,,,,,,,,NIE,,,,,,,,,,,,,
,,,,,,,,,,,,,,,,,,,,,,NIE,,,,,,,,,,,,,
,,,,,,,,,,,,,,,,,,,,,,NIE,,,,,,,,,,,,,
,,,,,,,,,,,,,,,,,,,,,,NIE,,,,,,,,,,,,,
,,,,,,,,,,,,,,,,,,,,,,NIE,,,,,,,,,,,,,
,,,,,,,,,,,,,,,,,,,,,,NIE,,,,,,,,,,,,,
,,,,,,,,,,,,,,,,,,,,,,NIE,,,,,,,,,,,,,
,,,,,,,,,,,,,,,,,,,,,,NIE,,,,,,,,,,,,,
,,,,,,,,,,,,,,,,,,,,,,NIE,,,,,,,,,,,,,
,,,,,,,,,,,,,,,,,,,,,,NIE,,,,,,,,,,,,,
,,,,,,,,,,,,,,,,,,,,,,NIE,,,,,,,,,,,,,
,,,,,,,,,,,,,,,,,,,,,,NIE,,,,,,,,,,,,,
,,,,,,,,,,,,,,,,,,,,,,NIE,,,,,,,,,,,,,
,,,,,,,,,,,,,,,,,,,,,,NIE,,,,,,,,,,,,,
,,,,,,,,,,,,,,,,,,,,,,NIE,,,,,,,,,,,,,
,,,,,,,,,,,,,,,,,,,,,,NIE,,,,,,,,,,,,,
,,,,,,,,,,,,,,,,,,,,,,NIE,,,,,,,,,,,,,
,,,,,,,,,,,,,,,,,,,,,,NIE,,,,,,,,,,,,,
,,,,,,,,,,,,,,,,,,,,,,NIE,,,,,,,,,,,,,
,,,,,,,,,,,,,,,,,,,,,,NIE,,,,,,,,,,,,,
,,,,,,,,,,,,,,,,,,,,,,NIE,,,,,,,,,,,,,
,,,,,,,,,,,,,,,,,,,,,,NIE,,,,,,,,,,,,,
,,,,,,,,,,,,,,,,,,,,,,NIE,,,,,,,,,,,,,
,,,,,,,,,,,,,,,,,,,,,,NIE,,,,,,,,,,,,,
,,,,,,,,,,,,,,,,,,,,,,NIE,,,,,,,,,,,,,
,,,,,,,,,,,,,,,,,,,,,,NIE,,,,,,,,,,,,,
,,,,,,,,,,,,,,,,,,,,,,NIE,,,,,,,,,,,,,
,,,,,,,,,,,,,,,,,,,,,,NIE,,,,,,,,,,,,,
,,,,,,,,,,,,,,,,,,,,,,NIE,,,,,,,,,,,,,
,,,,,,,,,,,,,,,,,,,,,,NIE,,,,,,,,,,,,,
,,,,,,,,,,,,,,,,,,,,,,NIE,,,,,,,,,,,,,
,,,,,,,,,,,,,,,,,,,,,,NIE,,,,,,,,,,,,,
,,,,,,,,,,,,,,,,,,,,,,NIE,,,,,,,,,,,,,
,,,,,,,,,,,,,,,,,,,,,,NIE,,,,,,,,,,,,,
,,,,,,,,,,,,,,,,,,,,,,NIE,,,,,,,,,,,,,
,,,,,,,,,,,,,,,,,,,,,,NIE,,,,,,,,,,,,,
,,,,,,,,,,,,,,,,,,,,,,NIE,,,,,,,,,,,,,
,,,,,,,,,,,,,,,,,,,,,,NIE,,,,,,,,,,,,,
,,,,,,,,,,,,,,,,,,,,,,NIE,,,,,,,,,,,,,
,,,,,,,,,,,,,,,,,,,,,,NIE,,,,,,,,,,,,,
,,,,,,,,,,,,,,,,,,,,,,NIE,,,,,,,,,,,,,
,,,,,,,,,,,,,,,,,,,,,,NIE,,,,,,,,,,,,,
,,,,,,,,,,,,,,,,,,,,,,NIE,,,,,,,,,,,,,
,,,,,,,,,,,,,,,,,,,,,,NIE,,,,,,,,,,,,,
,,,,,,,,,,,,,,,,,,,,,,NIE,,,,,,,,,,,,,
,,,,,,,,,,,,,,,,,,,,,,NIE,,,,,,,,,,,,,
,,,,,,,,,,,,,,,,,,,,,,NIE,,,,,,,,,,,,,
,,,,,,,,,,,,,,,,,,,,,,NIE,,,,,,,,,,,,,
,,,,,,,,,,,,,,,,,,,,,,NIE,,,,,,,,,,,,,
,,,,,,,,,,,,,,,,,,,,,,NIE,,,,,,,,,,,,,
,,,,,,,,,,,,,,,,,,,,,,NIE,,,,,,,,,,,,,
,,,,,,,,,,,,,,,,,,,,,,NIE,,,,,,,,,,,,,
,,,,,,,,,,,,,,,,,,,,,,NIE,,,,,,,,,,,,,
,,,,,,,,,,,,,,,,,,,,,,NIE,,,,,,,,,,,,,
,,,,,,,,,,,,,,,,,,,,,,NIE,,,,,,,,,,,,,
,,,,,,,,,,,,,,,,,,,,,,NIE,,,,,,,,,,,,,
,,,,,,,,,,,,,,,,,,,,,,NIE,,,,,,,,,,,,,
,,,,,,,,,,,,,,,,,,,,,,NIE,,,,,,,,,,,,,
,,,,,,,,,,,,,,,,,,,,,,NIE,,,,,,,,,,,,,
,,,,,,,,,,,,,,,,,,,,,,NIE,,,,,,,,,,,,,
,,,,,,,,,,,,,,,,,,,,,,NIE,,,,,,,,,,,,,
,,,,,,,,,,,,,,,,,,,,,,NIE,,,,,,,,,,,,,
,,,,,,,,,,,,,,,,,,,,,,NIE,,,,,,,,,,,,,
,,,,,,,,,,,,,,,,,,,,,,NIE,,,,,,,,,,,,,
,,,,,,,,,,,,,,,,,,,,,,NIE,,,,,,,,,,,,,
,,,,,,,,,,,,,,,,,,,,,,NIE,,,,,,,,,,,,,