Data załadunku,Data rozładunku,Kod producenta,Producent,F RR/VAT,Platnik,Kwota z faktury,Cena za kg,Waga załadowana,Waga do zapłaty,Waga odbiorcy,Przewoźnik,Numery auta,Fracht,CMR,Faktura transportowa,Odbiorca,Faktura sprzedaży,Cena sprzedaży,Faktura zakupu,Cena zakupu
15.02.2019,19.02.2019,,Kruszwica,,,,,22007,,,Mystek,RTA34473/RST3A46,2 800 €,NIE,25/2019 Hellenic,Hellenic,,,,
18.02.2019,22.02.2019,,Kruszwica/Toruń,,,,,24000,,,Szczepaniak,WZ8060T/WZ2796R,2 600 €,,,Hellenic,,,,
25.02.2019,28.02.2019,,Środa Wlkp,,,,,24000,,,Kujacz,,1 800 €,Ma dosłać,Ma dosłać,Makedoniki,02/03/2019',,,
25.02.2019,28.02.2019,,Stargard,,,,,24420,,,Yukon,FZ5417G/PGN01E2,1600 GBP,,,APK,,,,
28.02.2019,07.03.2019,,Stargard,,,,,26100,,,Unifeeder,CLXU4513441,1 400 €,,,APK,,,,
28.02.2019,07.03.2019,,Stargard,,,,,25800,,,Unifeeder,CNEU4551095,1 400 €,,,APK,,,,